Number entered was: 942868234500993117250467944408816031028966010147220015606182799826256572075243379411915860783292899337179712977619462417264516454552668748827
0	,	1
0	,	2
0	,	3
0	,	4
1	,	4
1	,	5
1	,	6
1	,	7
1	,	8
1	,	9
1	,	10
1	,	11
1	,	12
1	,	13
1	,	14
1	,	15
1	,	16
1	,	17
1	,	18
1	,	19
1	,	20
1	,	21
1	,	22
1	,	23
1	,	24
1	,	25
2	,	25
2	,	26
2	,	27
2	,	28
2	,	29
2	,	30
2	,	31
2	,	32
2	,	33
3	,	33
3	,	34
3	,	35
3	,	36
3	,	37
3	,	38
3	,	39
4	,	39
4	,	40
4	,	41
4	,	42
4	,	43
4	,	44
5	,	44
5	,	45
5	,	46
5	,	47
5	,	48
5	,	49
5	,	50
5	,	51
5	,	52
5	,	53
5	,	54
5	,	55
5	,	56
6	,	56
6	,	57
7	,	57
7	,	58
8	,	58
8	,	59
8	,	60
8	,	61
8	,	62
8	,	63
8	,	64
8	,	65
8	,	66
8	,	67
8	,	68
8	,	69
8	,	70
9	,	70
9	,	71
9	,	72
9	,	73
9	,	74
9	,	75
9	,	76
9	,	77
9	,	78
9	,	79
9	,	80
9	,	81
9	,	82
9	,	83
9	,	84
9	,	85
9	,	86
9	,	87
10	,	87
10	,	88
10	,	89
10	,	90
10	,	91
10	,	92
10	,	93
10	,	94
10	,	95
10	,	96
10	,	97
10	,	98
10	,	99
10	,	100
10	,	101
10	,	102
10	,	103
11	,	103
11	,	104
12	,	104
12	,	105
12	,	106
12	,	107
13	,	107
14	,	107
14	,	108
14	,	109
14	,	110
14	,	111
14	,	112
14	,	113
14	,	114
14	,	115
14	,	116
14	,	117
14	,	118
14	,	119
14	,	120
14	,	121
14	,	122
14	,	123
15	,	123
15	,	124
15	,	125
15	,	126
15	,	127
15	,	128
16	,	128
16	,	129
17	,	129
17	,	130
17	,	131
17	,	132
17	,	133
18	,	133
18	,	134
18	,	135
18	,	136
18	,	137
18	,	138
18	,	139
18	,	140
18	,	141
18	,	142
18	,	143
18	,	144
19	,	144
19	,	145
19	,	146
19	,	147
20	,	147
20	,	148
20	,	149
20	,	150
20	,	151
20	,	152
20	,	153
21	,	153
21	,	154
21	,	155
21	,	156
21	,	157
21	,	158
21	,	159
21	,	160
21	,	161
21	,	162
21	,	163
21	,	164
21	,	165
21	,	166
21	,	167
21	,	168
21	,	169
21	,	170
21	,	171
22	,	171
22	,	172
22	,	173
22	,	174
22	,	175
22	,	176
22	,	177
22	,	178
22	,	179
23	,	179
23	,	180
23	,	181
23	,	182
23	,	183
23	,	184
23	,	185
23	,	186
23	,	187
23	,	188
23	,	189
23	,	190
24	,	190
24	,	191
24	,	192
24	,	193
25	,	193
25	,	194
25	,	195
25	,	196
25	,	197
25	,	198
25	,	199
25	,	200
25	,	201
25	,	202
25	,	203
25	,	204
25	,	205
26	,	205
26	,	206
26	,	207
26	,	208
26	,	209
26	,	210
26	,	211
26	,	212
26	,	213
26	,	214
26	,	215
26	,	216
26	,	217
26	,	218
26	,	219
26	,	220
26	,	221
26	,	222
27	,	222
27	,	223
27	,	224
28	,	224
28	,	225
28	,	226
28	,	227
28	,	228
28	,	229
28	,	230
28	,	231
29	,	231
29	,	232
29	,	233
29	,	234
29	,	235
29	,	236
29	,	237
29	,	238
29	,	239
29	,	240
29	,	241
29	,	242
29	,	243
29	,	244
29	,	245
29	,	246
29	,	247
29	,	248
29	,	249
30	,	249
30	,	250
30	,	251
30	,	252
30	,	253
30	,	254
30	,	255
30	,	256
30	,	257
30	,	258
31	,	258
31	,	259
31	,	260
31	,	261
31	,	262
31	,	263
31	,	264
31	,	265
31	,	266
31	,	267
31	,	268
31	,	269
31	,	270
31	,	271
31	,	272
31	,	273
31	,	274
31	,	275
31	,	276
31	,	277
31	,	278
31	,	279
31	,	280
31	,	281
31	,	282
31	,	283
31	,	284
31	,	285
31	,	286
32	,	286
32	,	287
32	,	288
32	,	289
32	,	290
32	,	291
32	,	292
32	,	293
32	,	294
32	,	295
32	,	296
32	,	297
32	,	298
33	,	298
33	,	299
33	,	300
33	,	301
33	,	302
33	,	303
33	,	304
33	,	305
33	,	306
33	,	307
33	,	308
33	,	309
33	,	310
33	,	311
33	,	312
33	,	313
33	,	314
33	,	315
34	,	315
34	,	316
34	,	317
35	,	317
35	,	318
35	,	319
35	,	320
35	,	321
35	,	322
35	,	323
35	,	324
35	,	325
35	,	326
35	,	327
36	,	327
36	,	328
36	,	329
36	,	330
36	,	331
36	,	332
36	,	333
36	,	334
36	,	335
36	,	336
36	,	337
36	,	338
36	,	339
36	,	340
36	,	341
36	,	342
36	,	343
36	,	344
36	,	345
36	,	346
36	,	347
36	,	348
36	,	349
36	,	350
36	,	351
36	,	352
37	,	352
37	,	353
37	,	354
38	,	354
38	,	355
38	,	356
38	,	357
38	,	358
38	,	359
38	,	360
38	,	361
38	,	362
38	,	363
38	,	364
38	,	365
38	,	366
38	,	367
38	,	368
38	,	369
38	,	370
39	,	370
39	,	371
39	,	372
39	,	373
39	,	374
39	,	375
39	,	376
39	,	377
39	,	378
39	,	379
39	,	380
39	,	381
39	,	382
39	,	383
39	,	384
39	,	385
40	,	385
40	,	386
40	,	387
40	,	388
40	,	389
40	,	390
40	,	391
41	,	391
41	,	392
41	,	393
41	,	394
41	,	395
41	,	396
42	,	396
42	,	397
42	,	398
42	,	399
42	,	400
42	,	401
42	,	402
42	,	403
42	,	404
42	,	405
42	,	406
42	,	407
43	,	407
43	,	408
43	,	409
43	,	410
44	,	410
44	,	411
45	,	411
45	,	412
45	,	413
45	,	414
45	,	415
45	,	416
45	,	417
45	,	418
45	,	419
46	,	419
46	,	420
46	,	421
46	,	422
46	,	423
46	,	424
47	,	424
47	,	425
47	,	426
47	,	427
47	,	428
47	,	429
47	,	430
47	,	431
47	,	432
47	,	433
47	,	434
47	,	435
47	,	436
47	,	437
47	,	438
48	,	438
48	,	439
48	,	440
48	,	441
49	,	441
49	,	442
49	,	443
50	,	443
50	,	444
51	,	444
52	,	444
52	,	445
52	,	446
52	,	447
52	,	448
52	,	449
52	,	450
52	,	451
52	,	452
52	,	453
52	,	454
52	,	455
52	,	456
52	,	457
52	,	458
53	,	458
53	,	459
53	,	460
53	,	461
53	,	462
53	,	463
53	,	464
53	,	465
53	,	466
53	,	467
53	,	468
53	,	469
53	,	470
53	,	471
53	,	472
53	,	473
53	,	474
53	,	475
54	,	475
54	,	476
54	,	477
54	,	478
54	,	479
54	,	480
54	,	481
54	,	482
54	,	483
54	,	484
54	,	485
54	,	486
54	,	487
54	,	488
54	,	489
54	,	490
54	,	491
54	,	492
54	,	493
54	,	494
54	,	495
54	,	496
54	,	497
54	,	498
54	,	499
54	,	500
54	,	501
54	,	502
54	,	503
54	,	504
54	,	505
54	,	506
54	,	507
54	,	508
54	,	509
54	,	510
54	,	511
54	,	512
54	,	513
54	,	514
54	,	515
54	,	516
54	,	517
54	,	518
55	,	518
55	,	519
55	,	520
55	,	521
55	,	522
55	,	523
55	,	524
55	,	525
55	,	526
55	,	527
55	,	528
55	,	529
55	,	530
55	,	531
55	,	532
56	,	532
57	,	532
57	,	533
57	,	534
57	,	535
57	,	536
57	,	537
57	,	538
57	,	539
57	,	540
57	,	541
57	,	542
57	,	543
57	,	544
57	,	545
57	,	546
57	,	547
57	,	548
57	,	549
57	,	550
57	,	551
57	,	552
57	,	553
57	,	554
57	,	555
57	,	556
57	,	557
57	,	558
57	,	559
58	,	559
58	,	560
58	,	561
58	,	562
58	,	563
58	,	564
58	,	565
58	,	566
58	,	567
58	,	568
58	,	569
58	,	570
58	,	571
59	,	571
59	,	572
59	,	573
59	,	574
59	,	575
59	,	576
59	,	577
60	,	577
60	,	578
61	,	578
61	,	579
61	,	580
61	,	581
62	,	581
62	,	582
62	,	583
62	,	584
62	,	585
62	,	586
63	,	586
63	,	587
63	,	588
63	,	589
63	,	590
63	,	591
63	,	592
63	,	593
63	,	594
63	,	595
63	,	596
63	,	597
64	,	597
64	,	598
64	,	599
64	,	600
64	,	601
65	,	601
66	,	601
66	,	602
66	,	603
66	,	604
66	,	605
66	,	606
67	,	606
67	,	607
67	,	608
67	,	609
67	,	610
68	,	610
68	,	611
68	,	612
69	,	612
69	,	613
69	,	614
70	,	614
70	,	615
70	,	616
70	,	617
70	,	618
70	,	619
70	,	620
70	,	621
70	,	622
70	,	623
70	,	624
70	,	625
70	,	626
70	,	627
71	,	627
71	,	628
72	,	628
72	,	629
72	,	630
72	,	631
72	,	632
73	,	632
73	,	633
73	,	634
74	,	634
75	,	634
75	,	635
75	,	636
75	,	637
75	,	638
75	,	639
75	,	640
75	,	641
75	,	642
75	,	643
75	,	644
75	,	645
75	,	646
75	,	647
75	,	648
75	,	649
75	,	650
75	,	651
76	,	651
76	,	652
76	,	653
76	,	654
76	,	655
76	,	656
76	,	657
76	,	658
76	,	659
76	,	660
76	,	661
76	,	662
76	,	663
76	,	664
76	,	665
76	,	666
76	,	667
76	,	668
76	,	669
76	,	670
76	,	671
76	,	672
76	,	673
76	,	674
76	,	675
76	,	676
76	,	677
76	,	678
77	,	678
77	,	679
77	,	680
77	,	681
77	,	682
78	,	682
78	,	683
78	,	684
78	,	685
78	,	686
78	,	687
78	,	688
78	,	689
79	,	689
79	,	690
79	,	691
79	,	692
79	,	693
79	,	694
79	,	695
79	,	696
79	,	697
79	,	698
79	,	699
79	,	700
79	,	701
79	,	702
79	,	703
79	,	704
79	,	705
79	,	706
79	,	707
79	,	708
79	,	709
79	,	710
79	,	711
79	,	712
79	,	713
79	,	714
79	,	715
79	,	716
79	,	717
79	,	718
79	,	719
79	,	720
79	,	721
79	,	722
79	,	723
79	,	724
79	,	725
79	,	726
79	,	727
79	,	728
79	,	729
79	,	730
79	,	731
79	,	732
79	,	733
79	,	734
79	,	735
79	,	736
79	,	737
79	,	738
79	,	739
79	,	740
79	,	741
79	,	742
79	,	743
79	,	744
79	,	745
79	,	746
79	,	747
80	,	747
81	,	747
81	,	748
81	,	749
81	,	750
82	,	750
82	,	751
82	,	752
82	,	753
82	,	754
82	,	755
82	,	756
82	,	757
82	,	758
82	,	759
82	,	760
82	,	761
82	,	762
82	,	763
82	,	764
82	,	765
82	,	766
82	,	767
82	,	768
82	,	769
82	,	770
82	,	771
82	,	772
82	,	773
82	,	774
82	,	775
82	,	776
82	,	777
82	,	778
82	,	779
82	,	780
82	,	781
82	,	782
82	,	783
82	,	784
82	,	785
82	,	786
83	,	786
83	,	787
83	,	788
83	,	789
83	,	790
83	,	791
83	,	792
83	,	793
83	,	794
83	,	795
83	,	796
83	,	797
83	,	798
83	,	799
83	,	800
83	,	801
83	,	802
83	,	803
83	,	804
83	,	805
83	,	806
84	,	806
84	,	807
84	,	808
84	,	809
84	,	810
84	,	811
85	,	811
85	,	812
86	,	812
86	,	813
86	,	814
86	,	815
86	,	816
86	,	817
86	,	818
86	,	819
86	,	820
86	,	821
86	,	822
86	,	823
86	,	824
86	,	825
87	,	825
87	,	826
87	,	827
87	,	828
87	,	829
87	,	830
87	,	831
87	,	832
87	,	833
87	,	834
87	,	835
87	,	836
87	,	837
87	,	838
87	,	839
88	,	839
89	,	839
89	,	840
89	,	841
89	,	842
90	,	842
91	,	842
91	,	843
91	,	844
91	,	845
91	,	846
91	,	847
91	,	848
91	,	849
91	,	850
91	,	851
91	,	852
91	,	853
91	,	854
91	,	855
91	,	856
91	,	857
91	,	858
91	,	859
91	,	860
91	,	861
91	,	862
91	,	863
91	,	864
92	,	864
92	,	865
92	,	866
92	,	867
92	,	868
92	,	869
92	,	870
92	,	871
92	,	872
92	,	873
93	,	873
93	,	874
93	,	875
93	,	876
93	,	877
93	,	878
93	,	879
93	,	880
93	,	881
93	,	882
93	,	883
93	,	884
93	,	885
93	,	886
93	,	887
93	,	888
93	,	889
93	,	890
93	,	891
94	,	891
94	,	892
94	,	893
94	,	894
94	,	895
94	,	896
94	,	897
94	,	898
94	,	899
94	,	900
94	,	901
94	,	902
94	,	903
94	,	904
94	,	905
94	,	906
95	,	906
95	,	907
96	,	907
96	,	908
96	,	909
96	,	910
96	,	911
96	,	912
96	,	913
96	,	914
96	,	915
96	,	916
96	,	917
96	,	918
96	,	919
96	,	920
96	,	921
96	,	922
96	,	923
96	,	924
96	,	925
97	,	925
97	,	926
97	,	927
97	,	928
97	,	929
97	,	930
97	,	931
98	,	931
98	,	932
98	,	933
98	,	934
98	,	935
98	,	936
98	,	937
98	,	938
98	,	939
98	,	940
98	,	941
98	,	942
99	,	942
99	,	943
99	,	944
99	,	945
99	,	946
99	,	947
99	,	948
99	,	949
100	,	949
100	,	950
100	,	951
100	,	952
100	,	953
100	,	954
100	,	955
101	,	955
101	,	956
101	,	957
101	,	958
101	,	959
101	,	960
101	,	961
101	,	962
101	,	963
101	,	964
101	,	965
101	,	966
101	,	967
101	,	968
101	,	969
101	,	970
101	,	971
101	,	972
101	,	973
101	,	974
101	,	975
101	,	976
101	,	977
101	,	978
101	,	979
101	,	980
101	,	981
102	,	981
102	,	982
102	,	983
102	,	984
102	,	985
102	,	986
103	,	986
103	,	987
103	,	988
103	,	989
103	,	990
103	,	991
103	,	992
103	,	993
103	,	994
103	,	995
103	,	996
103	,	997
103	,	998
103	,	999
103	,	1000
103	,	1001
103	,	1002
103	,	1003
103	,	1004
103	,	1005
103	,	1006
103	,	1007
103	,	1008
103	,	1009
103	,	1010
103	,	1011
103	,	1012
103	,	1013
103	,	1014
103	,	1015
103	,	1016
103	,	1017
104	,	1017
104	,	1018
104	,	1019
104	,	1020
104	,	1021
104	,	1022
104	,	1023
104	,	1024
104	,	1025
104	,	1026
104	,	1027
104	,	1028
105	,	1028
105	,	1029
105	,	1030
105	,	1031
106	,	1031
106	,	1032
106	,	1033
106	,	1034
106	,	1035
106	,	1036
106	,	1037
106	,	1038
106	,	1039
106	,	1040
106	,	1041
106	,	1042
106	,	1043
106	,	1044
106	,	1045
106	,	1046
107	,	1046
107	,	1047
107	,	1048
107	,	1049
107	,	1050
108	,	1050
108	,	1051
109	,	1051
109	,	1052
109	,	1053
109	,	1054
109	,	1055
109	,	1056
109	,	1057
109	,	1058
109	,	1059
110	,	1059
110	,	1060
110	,	1061
110	,	1062
110	,	1063
110	,	1064
110	,	1065
110	,	1066
110	,	1067
111	,	1067
112	,	1067
112	,	1068
112	,	1069
112	,	1070
112	,	1071
113	,	1071
113	,	1072
113	,	1073
113	,	1074
113	,	1075
113	,	1076
113	,	1077
113	,	1078
113	,	1079
113	,	1080
113	,	1081
113	,	1082
113	,	1083
113	,	1084
113	,	1085
113	,	1086
113	,	1087
113	,	1088
113	,	1089
113	,	1090
113	,	1091
113	,	1092
113	,	1093
113	,	1094
113	,	1095
113	,	1096
113	,	1097
113	,	1098
113	,	1099
113	,	1100
113	,	1101
113	,	1102
113	,	1103
113	,	1104
113	,	1105
113	,	1106
113	,	1107
113	,	1108
113	,	1109
114	,	1109
114	,	1110
114	,	1111
114	,	1112
114	,	1113
114	,	1114
115	,	1114
115	,	1115
115	,	1116
115	,	1117
115	,	1118
115	,	1119
115	,	1120
115	,	1121
115	,	1122
115	,	1123
115	,	1124
115	,	1125
115	,	1126
115	,	1127
115	,	1128
115	,	1129
115	,	1130
115	,	1131
115	,	1132
115	,	1133
116	,	1133
116	,	1134
116	,	1135
116	,	1136
116	,	1137
116	,	1138
116	,	1139
116	,	1140
116	,	1141
116	,	1142
116	,	1143
116	,	1144
116	,	1145
116	,	1146
116	,	1147
116	,	1148
116	,	1149
116	,	1150
116	,	1151
116	,	1152
116	,	1153
116	,	1154
116	,	1155
117	,	1155
117	,	1156
117	,	1157
117	,	1158
117	,	1159
117	,	1160
117	,	1161
117	,	1162
117	,	1163
117	,	1164
117	,	1165
117	,	1166
117	,	1167
117	,	1168
117	,	1169
117	,	1170
117	,	1171
117	,	1172
117	,	1173
117	,	1174
117	,	1175
117	,	1176
117	,	1177
117	,	1178
117	,	1179
117	,	1180
117	,	1181
117	,	1182
118	,	1182
118	,	1183
118	,	1184
118	,	1185
118	,	1186
118	,	1187
118	,	1188
118	,	1189
118	,	1190
118	,	1191
118	,	1192
118	,	1193
118	,	1194
119	,	1194
119	,	1195
119	,	1196
119	,	1197
119	,	1198
119	,	1199
119	,	1200
119	,	1201
119	,	1202
119	,	1203
120	,	1203
120	,	1204
120	,	1205
120	,	1206
121	,	1206
122	,	1206
122	,	1207
122	,	1208
122	,	1209
122	,	1210
122	,	1211
122	,	1212
123	,	1212
123	,	1213
123	,	1214
123	,	1215
123	,	1216
123	,	1217
124	,	1217
124	,	1218
124	,	1219
125	,	1219
125	,	1220
125	,	1221
125	,	1222
126	,	1222
126	,	1223
126	,	1224
126	,	1225
126	,	1226
126	,	1227
126	,	1228
126	,	1229
126	,	1230
126	,	1231
126	,	1232
126	,	1233
126	,	1234
126	,	1235
126	,	1236
126	,	1237
126	,	1238
126	,	1239
126	,	1240
127	,	1240
127	,	1241
127	,	1242
127	,	1243
127	,	1244
127	,	1245
127	,	1246
127	,	1247
127	,	1248
127	,	1249
127	,	1250
127	,	1251
127	,	1252
127	,	1253
127	,	1254
127	,	1255
128	,	1255
128	,	1256
128	,	1257
128	,	1258
128	,	1259
128	,	1260
128	,	1261
128	,	1262
128	,	1263
128	,	1264
129	,	1264
129	,	1265
129	,	1266
129	,	1267
129	,	1268
129	,	1269
129	,	1270
129	,	1271
129	,	1272
129	,	1273
129	,	1274
129	,	1275
129	,	1276
129	,	1277
129	,	1278
130	,	1278
130	,	1279
130	,	1280
130	,	1281
130	,	1282
131	,	1282
131	,	1283
131	,	1284
131	,	1285
131	,	1286
132	,	1286
132	,	1287
132	,	1288
132	,	1289
132	,	1290
132	,	1291
132	,	1292
132	,	1293
132	,	1294
132	,	1295
132	,	1296
132	,	1297
132	,	1298
132	,	1299
132	,	1300
132	,	1301
132	,	1302
132	,	1303
132	,	1304
132	,	1305
132	,	1306
132	,	1307
132	,	1308
132	,	1309
132	,	1310
132	,	1311
132	,	1312
132	,	1313
133	,	1313
134	,	1313
134	,	1314
134	,	1315
134	,	1316
134	,	1317
134	,	1318
134	,	1319
134	,	1320
134	,	1321
134	,	1322
134	,	1323
135	,	1323
135	,	1324
135	,	1325
135	,	1326
135	,	1327
135	,	1328
135	,	1329
135	,	1330
135	,	1331
135	,	1332
135	,	1333
135	,	1334
135	,	1335
135	,	1336
135	,	1337
135	,	1338
135	,	1339
135	,	1340
135	,	1341
135	,	1342
136	,	1342
136	,	1343
136	,	1344
136	,	1345
136	,	1346
136	,	1347
136	,	1348
136	,	1349
137	,	1349
137	,	1350
137	,	1351
137	,	1352
137	,	1353
137	,	1354
137	,	1355
137	,	1356
137	,	1357
137	,	1358
137	,	1359
137	,	1360
137	,	1361
137	,	1362
137	,	1363
137	,	1364
137	,	1365
137	,	1366
137	,	1367
137	,	1368
137	,	1369
137	,	1370
138	,	1370
138	,	1371
138	,	1372
138	,	1373
138	,	1374
138	,	1375
138	,	1376
138	,	1377
138	,	1378
138	,	1379
138	,	1380
138	,	1381
138	,	1382
138	,	1383
138	,	1384
138	,	1385
138	,	1386
138	,	1387
138	,	1388
139	,	1388
139	,	1389
139	,	1390
139	,	1391
140	,	1391
140	,	1392
140	,	1393
140	,	1394
141	,	1394
141	,	1395
141	,	1396
141	,	1397
141	,	1398
141	,	1399
141	,	1400
141	,	1401
141	,	1402
141	,	1403
141	,	1404
141	,	1405
141	,	1406
141	,	1407
142	,	1407
142	,	1408
142	,	1409
142	,	1410
142	,	1411
142	,	1412
143	,	1412
144	,	1412
144	,	1413
144	,	1414
144	,	1415
144	,	1416
144	,	1417
145	,	1417
145	,	1418
145	,	1419
145	,	1420
145	,	1421
145	,	1422
145	,	1423
145	,	1424
145	,	1425
145	,	1426
146	,	1426
146	,	1427
147	,	1427
147	,	1428
147	,	1429
147	,	1430
147	,	1431
147	,	1432
147	,	1433
147	,	1434
147	,	1435
147	,	1436
147	,	1437
148	,	1437
148	,	1438
148	,	1439
148	,	1440
148	,	1441
148	,	1442
148	,	1443
148	,	1444
148	,	1445
148	,	1446
148	,	1447
148	,	1448
148	,	1449
148	,	1450
148	,	1451
148	,	1452
148	,	1453
148	,	1454
148	,	1455
148	,	1456
148	,	1457
148	,	1458
148	,	1459
148	,	1460
148	,	1461
148	,	1462
148	,	1463
148	,	1464
148	,	1465
148	,	1466
148	,	1467
148	,	1468
148	,	1469
148	,	1470
148	,	1471
148	,	1472
148	,	1473
148	,	1474
148	,	1475
148	,	1476
148	,	1477
148	,	1478
148	,	1479
148	,	1480
148	,	1481
148	,	1482
148	,	1483
148	,	1484
148	,	1485
148	,	1486
148	,	1487
148	,	1488
148	,	1489
148	,	1490
148	,	1491
148	,	1492
148	,	1493
148	,	1494
148	,	1495
148	,	1496
148	,	1497
148	,	1498
148	,	1499
148	,	1500
148	,	1501
148	,	1502
148	,	1503
148	,	1504
148	,	1505
149	,	1505
149	,	1506
150	,	1506
150	,	1507
151	,	1507
151	,	1508
151	,	1509
151	,	1510
151	,	1511
151	,	1512
151	,	1513
151	,	1514
151	,	1515
151	,	1516
151	,	1517
151	,	1518
151	,	1519
151	,	1520
151	,	1521
151	,	1522
151	,	1523
151	,	1524
151	,	1525
151	,	1526
152	,	1526
152	,	1527
152	,	1528
152	,	1529
152	,	1530
152	,	1531
152	,	1532
152	,	1533
152	,	1534
152	,	1535
152	,	1536
152	,	1537
152	,	1538
152	,	1539
152	,	1540
152	,	1541
153	,	1541
153	,	1542
153	,	1543
153	,	1544
153	,	1545
153	,	1546
154	,	1546
154	,	1547
154	,	1548
154	,	1549
154	,	1550
154	,	1551
154	,	1552
155	,	1552
155	,	1553
155	,	1554
155	,	1555
155	,	1556
155	,	1557
155	,	1558
155	,	1559
155	,	1560
155	,	1561
155	,	1562
155	,	1563
155	,	1564
155	,	1565
155	,	1566
155	,	1567
155	,	1568
155	,	1569
155	,	1570
155	,	1571
155	,	1572
155	,	1573
155	,	1574
155	,	1575
155	,	1576
155	,	1577
155	,	1578
155	,	1579
155	,	1580
155	,	1581
155	,	1582
155	,	1583
155	,	1584
155	,	1585
155	,	1586
155	,	1587
155	,	1588
155	,	1589
155	,	1590
156	,	1590
157	,	1590
158	,	1590
158	,	1591
158	,	1592
158	,	1593
158	,	1594
158	,	1595
158	,	1596
158	,	1597
158	,	1598
159	,	1598
159	,	1599
159	,	1600
159	,	1601
160	,	1601
160	,	1602
160	,	1603
161	,	1603
161	,	1604
161	,	1605
161	,	1606
161	,	1607
161	,	1608
161	,	1609
161	,	1610
161	,	1611
162	,	1611
162	,	1612
162	,	1613
162	,	1614
162	,	1615
163	,	1615
163	,	1616
163	,	1617
163	,	1618
163	,	1619
163	,	1620
163	,	1621
163	,	1622
163	,	1623
163	,	1624
163	,	1625
163	,	1626
164	,	1626
164	,	1627
164	,	1628
164	,	1629
164	,	1630
164	,	1631
164	,	1632
164	,	1633
164	,	1634
165	,	1634
165	,	1635
165	,	1636
165	,	1637
165	,	1638
165	,	1639
165	,	1640
165	,	1641
166	,	1641
166	,	1642
166	,	1643
166	,	1644
167	,	1644
167	,	1645
167	,	1646
167	,	1647
167	,	1648
168	,	1648
168	,	1649
168	,	1650
168	,	1651
168	,	1652
168	,	1653
168	,	1654
168	,	1655
168	,	1656
168	,	1657
169	,	1657
170	,	1657
170	,	1658
171	,	1658
171	,	1659
171	,	1660
171	,	1661
171	,	1662
172	,	1662
172	,	1663
172	,	1664
172	,	1665
172	,	1666
172	,	1667
172	,	1668
172	,	1669
172	,	1670
172	,	1671
172	,	1672
172	,	1673
172	,	1674
172	,	1675
172	,	1676
172	,	1677
172	,	1678
172	,	1679
172	,	1680
172	,	1681
172	,	1682
172	,	1683
172	,	1684
172	,	1685
172	,	1686
172	,	1687
172	,	1688
172	,	1689
172	,	1690
172	,	1691
172	,	1692
172	,	1693
172	,	1694
172	,	1695
172	,	1696
172	,	1697
172	,	1698
172	,	1699
172	,	1700
172	,	1701
172	,	1702
172	,	1703
172	,	1704
172	,	1705
172	,	1706
172	,	1707
172	,	1708
172	,	1709
172	,	1710
172	,	1711
172	,	1712
172	,	1713
172	,	1714
172	,	1715
172	,	1716
172	,	1717
173	,	1717
173	,	1718
174	,	1718
175	,	1718
175	,	1719
175	,	1720
175	,	1721
175	,	1722
175	,	1723
175	,	1724
176	,	1724
176	,	1725
177	,	1725
177	,	1726
177	,	1727
177	,	1728
177	,	1729
177	,	1730
177	,	1731
177	,	1732
177	,	1733
177	,	1734
177	,	1735
177	,	1736
177	,	1737
177	,	1738
177	,	1739
177	,	1740
177	,	1741
177	,	1742
177	,	1743
177	,	1744
177	,	1745
177	,	1746
177	,	1747
177	,	1748
177	,	1749
177	,	1750
177	,	1751
177	,	1752
177	,	1753
177	,	1754
177	,	1755
177	,	1756
177	,	1757
177	,	1758
177	,	1759
177	,	1760
177	,	1761
177	,	1762
177	,	1763
177	,	1764
178	,	1764
178	,	1765
178	,	1766
178	,	1767
178	,	1768
178	,	1769
178	,	1770
178	,	1771
179	,	1771
179	,	1772
179	,	1773
179	,	1774
179	,	1775
179	,	1776
180	,	1776
180	,	1777
180	,	1778
180	,	1779
180	,	1780
180	,	1781
180	,	1782
180	,	1783
180	,	1784
180	,	1785
180	,	1786
180	,	1787
180	,	1788
180	,	1789
181	,	1789
181	,	1790
181	,	1791
181	,	1792
181	,	1793
181	,	1794
181	,	1795
181	,	1796
181	,	1797
181	,	1798
181	,	1799
181	,	1800
181	,	1801
181	,	1802
181	,	1803
181	,	1804
182	,	1804
182	,	1805
183	,	1805
183	,	1806
183	,	1807
183	,	1808
184	,	1808
184	,	1809
184	,	1810
184	,	1811
184	,	1812
184	,	1813
185	,	1813
185	,	1814
185	,	1815
