Number entered was: 8305404735562143468644121405199753916259929235541375820578805398279090663803616436820055632423088821122261752943016182212833238037062001147291
0	,	1
0	,	2
0	,	3
0	,	4
0	,	5
0	,	6
0	,	7
0	,	8
0	,	9
1	,	9
1	,	10
1	,	11
2	,	11
2	,	12
2	,	13
2	,	14
2	,	15
2	,	16
3	,	16
3	,	17
3	,	18
3	,	19
3	,	20
3	,	21
3	,	22
3	,	23
3	,	24
3	,	25
3	,	26
3	,	27
3	,	28
3	,	29
3	,	30
3	,	31
3	,	32
3	,	33
3	,	34
3	,	35
3	,	36
3	,	37
3	,	38
3	,	39
3	,	40
3	,	41
3	,	42
3	,	43
3	,	44
3	,	45
3	,	46
3	,	47
4	,	47
4	,	48
4	,	49
4	,	50
5	,	50
5	,	51
6	,	51
6	,	52
6	,	53
6	,	54
6	,	55
6	,	56
7	,	56
7	,	57
7	,	58
7	,	59
7	,	60
7	,	61
7	,	62
7	,	63
7	,	64
7	,	65
7	,	66
7	,	67
7	,	68
7	,	69
7	,	70
7	,	71
7	,	72
7	,	73
7	,	74
7	,	75
7	,	76
7	,	77
7	,	78
7	,	79
7	,	80
7	,	81
7	,	82
7	,	83
7	,	84
7	,	85
7	,	86
7	,	87
7	,	88
8	,	88
8	,	89
8	,	90
8	,	91
8	,	92
8	,	93
8	,	94
8	,	95
8	,	96
8	,	97
8	,	98
8	,	99
8	,	100
8	,	101
8	,	102
8	,	103
8	,	104
8	,	105
8	,	106
8	,	107
8	,	108
9	,	108
9	,	109
9	,	110
9	,	111
9	,	112
9	,	113
9	,	114
9	,	115
9	,	116
9	,	117
9	,	118
9	,	119
9	,	120
9	,	121
10	,	121
10	,	122
10	,	123
10	,	124
10	,	125
10	,	126
10	,	127
10	,	128
10	,	129
10	,	130
10	,	131
10	,	132
11	,	132
11	,	133
11	,	134
11	,	135
11	,	136
11	,	137
11	,	138
11	,	139
11	,	140
11	,	141
11	,	142
11	,	143
11	,	144
11	,	145
11	,	146
11	,	147
12	,	147
12	,	148
12	,	149
12	,	150
12	,	151
12	,	152
12	,	153
12	,	154
12	,	155
12	,	156
12	,	157
12	,	158
12	,	159
12	,	160
12	,	161
12	,	162
12	,	163
12	,	164
12	,	165
12	,	166
12	,	167
12	,	168
12	,	169
12	,	170
12	,	171
12	,	172
12	,	173
12	,	174
12	,	175
12	,	176
12	,	177
12	,	178
12	,	179
12	,	180
12	,	181
12	,	182
12	,	183
12	,	184
12	,	185
12	,	186
12	,	187
12	,	188
13	,	188
13	,	189
13	,	190
13	,	191
13	,	192
13	,	193
13	,	194
13	,	195
13	,	196
13	,	197
13	,	198
13	,	199
13	,	200
13	,	201
14	,	201
14	,	202
14	,	203
14	,	204
14	,	205
14	,	206
14	,	207
14	,	208
14	,	209
14	,	210
14	,	211
14	,	212
14	,	213
14	,	214
14	,	215
15	,	215
15	,	216
15	,	217
15	,	218
15	,	219
15	,	220
15	,	221
15	,	222
15	,	223
15	,	224
15	,	225
15	,	226
16	,	226
16	,	227
16	,	228
16	,	229
16	,	230
16	,	231
16	,	232
17	,	232
17	,	233
17	,	234
17	,	235
17	,	236
17	,	237
17	,	238
17	,	239
17	,	240
17	,	241
17	,	242
17	,	243
17	,	244
17	,	245
18	,	245
18	,	246
18	,	247
18	,	248
18	,	249
18	,	250
18	,	251
18	,	252
18	,	253
18	,	254
18	,	255
18	,	256
18	,	257
18	,	258
18	,	259
18	,	260
18	,	261
18	,	262
18	,	263
18	,	264
18	,	265
18	,	266
18	,	267
18	,	268
18	,	269
18	,	270
18	,	271
18	,	272
18	,	273
18	,	274
18	,	275
18	,	276
18	,	277
18	,	278
18	,	279
18	,	280
19	,	280
20	,	280
20	,	281
20	,	282
20	,	283
20	,	284
20	,	285
20	,	286
20	,	287
20	,	288
20	,	289
20	,	290
20	,	291
20	,	292
20	,	293
20	,	294
20	,	295
20	,	296
21	,	296
21	,	297
21	,	298
21	,	299
21	,	300
21	,	301
21	,	302
21	,	303
21	,	304
21	,	305
21	,	306
21	,	307
21	,	308
21	,	309
21	,	310
21	,	311
21	,	312
21	,	313
21	,	314
21	,	315
21	,	316
21	,	317
21	,	318
21	,	319
22	,	319
22	,	320
22	,	321
22	,	322
22	,	323
22	,	324
22	,	325
22	,	326
22	,	327
22	,	328
22	,	329
22	,	330
22	,	331
22	,	332
22	,	333
22	,	334
22	,	335
22	,	336
22	,	337
22	,	338
22	,	339
22	,	340
22	,	341
22	,	342
22	,	343
22	,	344
22	,	345
22	,	346
22	,	347
22	,	348
22	,	349
22	,	350
22	,	351
22	,	352
22	,	353
22	,	354
22	,	355
22	,	356
22	,	357
22	,	358
22	,	359
22	,	360
22	,	361
22	,	362
22	,	363
22	,	364
22	,	365
22	,	366
22	,	367
22	,	368
22	,	369
22	,	370
22	,	371
22	,	372
22	,	373
22	,	374
22	,	375
22	,	376
22	,	377
22	,	378
22	,	379
22	,	380
22	,	381
22	,	382
22	,	383
23	,	383
23	,	384
23	,	385
23	,	386
23	,	387
23	,	388
23	,	389
23	,	390
23	,	391
23	,	392
23	,	393
23	,	394
23	,	395
24	,	395
24	,	396
24	,	397
24	,	398
24	,	399
24	,	400
24	,	401
24	,	402
24	,	403
24	,	404
24	,	405
24	,	406
24	,	407
24	,	408
24	,	409
24	,	410
24	,	411
24	,	412
24	,	413
24	,	414
24	,	415
24	,	416
24	,	417
24	,	418
24	,	419
24	,	420
24	,	421
24	,	422
24	,	423
24	,	424
24	,	425
24	,	426
24	,	427
24	,	428
24	,	429
24	,	430
25	,	430
25	,	431
25	,	432
25	,	433
25	,	434
25	,	435
25	,	436
25	,	437
25	,	438
25	,	439
25	,	440
25	,	441
25	,	442
25	,	443
25	,	444
25	,	445
25	,	446
25	,	447
25	,	448
26	,	448
26	,	449
26	,	450
26	,	451
26	,	452
27	,	452
27	,	453
27	,	454
27	,	455
27	,	456
27	,	457
27	,	458
27	,	459
27	,	460
27	,	461
27	,	462
27	,	463
27	,	464
27	,	465
27	,	466
27	,	467
27	,	468
28	,	468
28	,	469
28	,	470
28	,	471
28	,	472
28	,	473
28	,	474
28	,	475
28	,	476
28	,	477
28	,	478
29	,	478
29	,	479
29	,	480
29	,	481
29	,	482
29	,	483
29	,	484
29	,	485
29	,	486
29	,	487
29	,	488
29	,	489
29	,	490
29	,	491
29	,	492
29	,	493
29	,	494
29	,	495
29	,	496
29	,	497
29	,	498
29	,	499
29	,	500
29	,	501
30	,	501
30	,	502
30	,	503
30	,	504
30	,	505
30	,	506
30	,	507
30	,	508
30	,	509
30	,	510
30	,	511
30	,	512
30	,	513
30	,	514
30	,	515
30	,	516
30	,	517
30	,	518
30	,	519
30	,	520
30	,	521
30	,	522
30	,	523
30	,	524
30	,	525
31	,	525
31	,	526
31	,	527
31	,	528
31	,	529
31	,	530
31	,	531
31	,	532
31	,	533
31	,	534
31	,	535
31	,	536
32	,	536
32	,	537
33	,	537
33	,	538
33	,	539
33	,	540
33	,	541
33	,	542
33	,	543
34	,	543
34	,	544
35	,	544
35	,	545
35	,	546
35	,	547
35	,	548
35	,	549
35	,	550
35	,	551
35	,	552
35	,	553
35	,	554
36	,	554
36	,	555
36	,	556
36	,	557
36	,	558
36	,	559
36	,	560
36	,	561
37	,	561
37	,	562
37	,	563
37	,	564
37	,	565
37	,	566
37	,	567
37	,	568
38	,	568
39	,	568
39	,	569
39	,	570
39	,	571
39	,	572
39	,	573
39	,	574
39	,	575
39	,	576
39	,	577
39	,	578
39	,	579
39	,	580
39	,	581
40	,	581
40	,	582
40	,	583
40	,	584
40	,	585
40	,	586
40	,	587
40	,	588
40	,	589
40	,	590
40	,	591
40	,	592
40	,	593
40	,	594
41	,	594
41	,	595
41	,	596
41	,	597
41	,	598
42	,	598
42	,	599
42	,	600
42	,	601
42	,	602
42	,	603
42	,	604
42	,	605
42	,	606
42	,	607
42	,	608
42	,	609
42	,	610
42	,	611
42	,	612
42	,	613
42	,	614
42	,	615
42	,	616
42	,	617
42	,	618
42	,	619
42	,	620
42	,	621
42	,	622
42	,	623
42	,	624
42	,	625
42	,	626
42	,	627
42	,	628
42	,	629
43	,	629
44	,	629
44	,	630
44	,	631
44	,	632
44	,	633
44	,	634
44	,	635
44	,	636
44	,	637
44	,	638
44	,	639
44	,	640
44	,	641
44	,	642
44	,	643
44	,	644
44	,	645
44	,	646
44	,	647
44	,	648
44	,	649
44	,	650
44	,	651
44	,	652
44	,	653
44	,	654
44	,	655
44	,	656
44	,	657
44	,	658
45	,	658
45	,	659
45	,	660
45	,	661
45	,	662
45	,	663
45	,	664
45	,	665
45	,	666
45	,	667
45	,	668
45	,	669
45	,	670
46	,	670
46	,	671
46	,	672
46	,	673
46	,	674
46	,	675
46	,	676
46	,	677
46	,	678
46	,	679
46	,	680
46	,	681
46	,	682
46	,	683
47	,	683
47	,	684
47	,	685
47	,	686
47	,	687
47	,	688
47	,	689
47	,	690
47	,	691
47	,	692
47	,	693
47	,	694
47	,	695
47	,	696
47	,	697
47	,	698
47	,	699
47	,	700
47	,	701
47	,	702
47	,	703
47	,	704
47	,	705
48	,	705
48	,	706
48	,	707
48	,	708
48	,	709
48	,	710
48	,	711
48	,	712
48	,	713
48	,	714
48	,	715
48	,	716
48	,	717
48	,	718
48	,	719
48	,	720
48	,	721
48	,	722
48	,	723
48	,	724
48	,	725
48	,	726
48	,	727
48	,	728
48	,	729
48	,	730
48	,	731
48	,	732
48	,	733
48	,	734
48	,	735
48	,	736
48	,	737
48	,	738
48	,	739
48	,	740
48	,	741
48	,	742
49	,	742
49	,	743
49	,	744
49	,	745
49	,	746
49	,	747
49	,	748
49	,	749
49	,	750
49	,	751
49	,	752
49	,	753
49	,	754
49	,	755
49	,	756
49	,	757
49	,	758
49	,	759
49	,	760
49	,	761
49	,	762
49	,	763
49	,	764
49	,	765
49	,	766
49	,	767
49	,	768
49	,	769
49	,	770
49	,	771
50	,	771
50	,	772
50	,	773
50	,	774
51	,	774
51	,	775
51	,	776
51	,	777
51	,	778
51	,	779
51	,	780
51	,	781
51	,	782
51	,	783
52	,	783
52	,	784
53	,	784
53	,	785
53	,	786
53	,	787
53	,	788
53	,	789
53	,	790
53	,	791
53	,	792
53	,	793
53	,	794
54	,	794
54	,	795
54	,	796
54	,	797
54	,	798
54	,	799
54	,	800
54	,	801
54	,	802
54	,	803
54	,	804
55	,	804
55	,	805
55	,	806
55	,	807
55	,	808
55	,	809
55	,	810
55	,	811
55	,	812
55	,	813
55	,	814
55	,	815
55	,	816
55	,	817
55	,	818
55	,	819
55	,	820
55	,	821
55	,	822
55	,	823
55	,	824
55	,	825
55	,	826
55	,	827
55	,	828
55	,	829
55	,	830
55	,	831
55	,	832
55	,	833
55	,	834
55	,	835
55	,	836
55	,	837
55	,	838
56	,	838
56	,	839
56	,	840
56	,	841
56	,	842
56	,	843
56	,	844
56	,	845
56	,	846
56	,	847
56	,	848
56	,	849
56	,	850
56	,	851
56	,	852
56	,	853
56	,	854
56	,	855
56	,	856
57	,	856
57	,	857
57	,	858
57	,	859
57	,	860
57	,	861
57	,	862
57	,	863
57	,	864
57	,	865
58	,	865
58	,	866
58	,	867
58	,	868
58	,	869
59	,	869
59	,	870
59	,	871
59	,	872
59	,	873
59	,	874
59	,	875
59	,	876
59	,	877
59	,	878
59	,	879
59	,	880
59	,	881
59	,	882
59	,	883
59	,	884
60	,	884
60	,	885
60	,	886
60	,	887
60	,	888
60	,	889
60	,	890
60	,	891
60	,	892
60	,	893
60	,	894
60	,	895
60	,	896
60	,	897
60	,	898
60	,	899
60	,	900
60	,	901
60	,	902
60	,	903
60	,	904
60	,	905
60	,	906
60	,	907
61	,	907
61	,	908
61	,	909
61	,	910
61	,	911
61	,	912
61	,	913
61	,	914
62	,	914
62	,	915
62	,	916
62	,	917
62	,	918
62	,	919
62	,	920
62	,	921
62	,	922
62	,	923
62	,	924
62	,	925
62	,	926
62	,	927
62	,	928
63	,	928
64	,	928
64	,	929
64	,	930
64	,	931
64	,	932
64	,	933
64	,	934
64	,	935
64	,	936
64	,	937
64	,	938
64	,	939
64	,	940
64	,	941
64	,	942
64	,	943
64	,	944
64	,	945
64	,	946
64	,	947
64	,	948
64	,	949
64	,	950
64	,	951
65	,	951
65	,	952
65	,	953
66	,	953
66	,	954
66	,	955
66	,	956
66	,	957
66	,	958
66	,	959
67	,	959
67	,	960
67	,	961
67	,	962
67	,	963
67	,	964
67	,	965
67	,	966
67	,	967
67	,	968
67	,	969
67	,	970
67	,	971
68	,	971
68	,	972
68	,	973
68	,	974
68	,	975
68	,	976
68	,	977
68	,	978
68	,	979
68	,	980
68	,	981
69	,	981
69	,	982
69	,	983
69	,	984
70	,	984
70	,	985
70	,	986
70	,	987
70	,	988
70	,	989
70	,	990
70	,	991
70	,	992
70	,	993
70	,	994
70	,	995
70	,	996
70	,	997
70	,	998
70	,	999
70	,	1000
70	,	1001
70	,	1002
70	,	1003
70	,	1004
70	,	1005
70	,	1006
70	,	1007
70	,	1008
70	,	1009
70	,	1010
70	,	1011
71	,	1011
71	,	1012
71	,	1013
71	,	1014
71	,	1015
71	,	1016
71	,	1017
71	,	1018
71	,	1019
71	,	1020
71	,	1021
71	,	1022
71	,	1023
71	,	1024
71	,	1025
71	,	1026
71	,	1027
71	,	1028
71	,	1029
71	,	1030
71	,	1031
71	,	1032
71	,	1033
71	,	1034
71	,	1035
71	,	1036
71	,	1037
71	,	1038
71	,	1039
71	,	1040
71	,	1041
71	,	1042
71	,	1043
72	,	1043
72	,	1044
72	,	1045
72	,	1046
72	,	1047
72	,	1048
72	,	1049
72	,	1050
72	,	1051
72	,	1052
72	,	1053
72	,	1054
72	,	1055
72	,	1056
72	,	1057
72	,	1058
72	,	1059
73	,	1059
73	,	1060
73	,	1061
73	,	1062
73	,	1063
73	,	1064
73	,	1065
73	,	1066
73	,	1067
73	,	1068
73	,	1069
73	,	1070
73	,	1071
74	,	1071
74	,	1072
75	,	1072
75	,	1073
75	,	1074
75	,	1075
75	,	1076
75	,	1077
75	,	1078
75	,	1079
75	,	1080
75	,	1081
75	,	1082
75	,	1083
75	,	1084
75	,	1085
75	,	1086
75	,	1087
75	,	1088
75	,	1089
75	,	1090
75	,	1091
75	,	1092
75	,	1093
75	,	1094
75	,	1095
75	,	1096
75	,	1097
75	,	1098
75	,	1099
75	,	1100
75	,	1101
75	,	1102
75	,	1103
75	,	1104
75	,	1105
75	,	1106
75	,	1107
75	,	1108
75	,	1109
76	,	1109
76	,	1110
76	,	1111
76	,	1112
76	,	1113
76	,	1114
76	,	1115
76	,	1116
76	,	1117
76	,	1118
76	,	1119
76	,	1120
76	,	1121
76	,	1122
76	,	1123
76	,	1124
76	,	1125
76	,	1126
76	,	1127
76	,	1128
76	,	1129
76	,	1130
76	,	1131
77	,	1131
77	,	1132
77	,	1133
77	,	1134
77	,	1135
77	,	1136
77	,	1137
77	,	1138
77	,	1139
77	,	1140
77	,	1141
78	,	1141
78	,	1142
78	,	1143
78	,	1144
78	,	1145
78	,	1146
78	,	1147
78	,	1148
78	,	1149
78	,	1150
78	,	1151
78	,	1152
78	,	1153
78	,	1154
78	,	1155
79	,	1155
79	,	1156
79	,	1157
79	,	1158
80	,	1158
80	,	1159
80	,	1160
80	,	1161
80	,	1162
80	,	1163
80	,	1164
80	,	1165
80	,	1166
80	,	1167
80	,	1168
80	,	1169
80	,	1170
80	,	1171
81	,	1171
81	,	1172
81	,	1173
81	,	1174
81	,	1175
81	,	1176
81	,	1177
82	,	1177
82	,	1178
82	,	1179
83	,	1179
83	,	1180
83	,	1181
83	,	1182
83	,	1183
83	,	1184
83	,	1185
83	,	1186
83	,	1187
83	,	1188
83	,	1189
83	,	1190
83	,	1191
83	,	1192
83	,	1193
83	,	1194
84	,	1194
84	,	1195
84	,	1196
84	,	1197
84	,	1198
84	,	1199
84	,	1200
85	,	1200
85	,	1201
85	,	1202
85	,	1203
85	,	1204
85	,	1205
85	,	1206
85	,	1207
86	,	1207
86	,	1208
87	,	1208
87	,	1209
88	,	1209
88	,	1210
88	,	1211
88	,	1212
88	,	1213
88	,	1214
88	,	1215
88	,	1216
88	,	1217
88	,	1218
88	,	1219
88	,	1220
88	,	1221
88	,	1222
88	,	1223
89	,	1223
89	,	1224
89	,	1225
89	,	1226
90	,	1226
90	,	1227
90	,	1228
91	,	1228
91	,	1229
91	,	1230
91	,	1231
91	,	1232
91	,	1233
91	,	1234
91	,	1235
91	,	1236
91	,	1237
91	,	1238
91	,	1239
91	,	1240
91	,	1241
91	,	1242
91	,	1243
91	,	1244
92	,	1244
92	,	1245
92	,	1246
92	,	1247
92	,	1248
92	,	1249
92	,	1250
92	,	1251
92	,	1252
92	,	1253
92	,	1254
92	,	1255
92	,	1256
92	,	1257
92	,	1258
92	,	1259
93	,	1259
93	,	1260
93	,	1261
93	,	1262
93	,	1263
93	,	1264
93	,	1265
93	,	1266
93	,	1267
93	,	1268
93	,	1269
93	,	1270
93	,	1271
93	,	1272
93	,	1273
93	,	1274
93	,	1275
93	,	1276
93	,	1277
93	,	1278
93	,	1279
93	,	1280
93	,	1281
93	,	1282
94	,	1282
94	,	1283
94	,	1284
94	,	1285
94	,	1286
94	,	1287
94	,	1288
94	,	1289
94	,	1290
94	,	1291
94	,	1292
94	,	1293
94	,	1294
94	,	1295
94	,	1296
94	,	1297
94	,	1298
94	,	1299
94	,	1300
94	,	1301
94	,	1302
94	,	1303
94	,	1304
94	,	1305
94	,	1306
95	,	1306
95	,	1307
95	,	1308
95	,	1309
95	,	1310
95	,	1311
95	,	1312
96	,	1312
96	,	1313
96	,	1314
96	,	1315
96	,	1316
96	,	1317
96	,	1318
96	,	1319
96	,	1320
96	,	1321
96	,	1322
96	,	1323
96	,	1324
96	,	1325
96	,	1326
96	,	1327
96	,	1328
96	,	1329
96	,	1330
96	,	1331
96	,	1332
96	,	1333
97	,	1333
97	,	1334
97	,	1335
97	,	1336
97	,	1337
97	,	1338
97	,	1339
97	,	1340
97	,	1341
97	,	1342
97	,	1343
97	,	1344
97	,	1345
97	,	1346
97	,	1347
97	,	1348
98	,	1348
98	,	1349
98	,	1350
98	,	1351
98	,	1352
98	,	1353
98	,	1354
98	,	1355
98	,	1356
98	,	1357
98	,	1358
98	,	1359
98	,	1360
98	,	1361
98	,	1362
98	,	1363
98	,	1364
98	,	1365
98	,	1366
98	,	1367
98	,	1368
98	,	1369
98	,	1370
98	,	1371
98	,	1372
98	,	1373
98	,	1374
98	,	1375
98	,	1376
98	,	1377
98	,	1378
98	,	1379
98	,	1380
98	,	1381
98	,	1382
98	,	1383
98	,	1384
98	,	1385
98	,	1386
98	,	1387
98	,	1388
98	,	1389
98	,	1390
98	,	1391
98	,	1392
98	,	1393
98	,	1394
98	,	1395
98	,	1396
98	,	1397
98	,	1398
98	,	1399
98	,	1400
98	,	1401
98	,	1402
98	,	1403
98	,	1404
98	,	1405
98	,	1406
98	,	1407
98	,	1408
98	,	1409
98	,	1410
98	,	1411
98	,	1412
98	,	1413
98	,	1414
98	,	1415
98	,	1416
98	,	1417
99	,	1417
100	,	1417
100	,	1418
100	,	1419
100	,	1420
100	,	1421
100	,	1422
101	,	1422
101	,	1423
101	,	1424
101	,	1425
101	,	1426
101	,	1427
101	,	1428
101	,	1429
101	,	1430
102	,	1430
102	,	1431
102	,	1432
102	,	1433
102	,	1434
102	,	1435
103	,	1435
103	,	1436
103	,	1437
103	,	1438
103	,	1439
103	,	1440
103	,	1441
103	,	1442
103	,	1443
103	,	1444
104	,	1444
104	,	1445
104	,	1446
105	,	1446
105	,	1447
105	,	1448
105	,	1449
105	,	1450
105	,	1451
105	,	1452
105	,	1453
105	,	1454
106	,	1454
106	,	1455
106	,	1456
106	,	1457
106	,	1458
106	,	1459
106	,	1460
106	,	1461
106	,	1462
106	,	1463
106	,	1464
106	,	1465
106	,	1466
106	,	1467
106	,	1468
106	,	1469
106	,	1470
107	,	1470
107	,	1471
107	,	1472
107	,	1473
107	,	1474
107	,	1475
107	,	1476
107	,	1477
107	,	1478
107	,	1479
107	,	1480
107	,	1481
107	,	1482
107	,	1483
107	,	1484
107	,	1485
107	,	1486
107	,	1487
107	,	1488
107	,	1489
107	,	1490
107	,	1491
107	,	1492
107	,	1493
107	,	1494
107	,	1495
107	,	1496
107	,	1497
107	,	1498
107	,	1499
107	,	1500
107	,	1501
107	,	1502
107	,	1503
107	,	1504
107	,	1505
107	,	1506
107	,	1507
107	,	1508
107	,	1509
107	,	1510
107	,	1511
107	,	1512
107	,	1513
107	,	1514
107	,	1515
107	,	1516
107	,	1517
107	,	1518
107	,	1519
107	,	1520
107	,	1521
107	,	1522
107	,	1523
107	,	1524
107	,	1525
107	,	1526
108	,	1526
108	,	1527
108	,	1528
108	,	1529
108	,	1530
108	,	1531
108	,	1532
108	,	1533
108	,	1534
108	,	1535
108	,	1536
108	,	1537
108	,	1538
109	,	1538
109	,	1539
109	,	1540
109	,	1541
109	,	1542
110	,	1542
110	,	1543
110	,	1544
110	,	1545
110	,	1546
110	,	1547
110	,	1548
110	,	1549
111	,	1549
111	,	1550
111	,	1551
111	,	1552
111	,	1553
112	,	1553
112	,	1554
112	,	1555
112	,	1556
112	,	1557
112	,	1558
112	,	1559
112	,	1560
112	,	1561
112	,	1562
112	,	1563
112	,	1564
112	,	1565
112	,	1566
112	,	1567
112	,	1568
112	,	1569
112	,	1570
112	,	1571
112	,	1572
112	,	1573
112	,	1574
112	,	1575
112	,	1576
113	,	1576
113	,	1577
113	,	1578
113	,	1579
113	,	1580
113	,	1581
113	,	1582
113	,	1583
113	,	1584
113	,	1585
113	,	1586
113	,	1587
113	,	1588
113	,	1589
113	,	1590
113	,	1591
113	,	1592
113	,	1593
113	,	1594
113	,	1595
113	,	1596
113	,	1597
113	,	1598
113	,	1599
113	,	1600
113	,	1601
113	,	1602
113	,	1603
113	,	1604
113	,	1605
113	,	1606
114	,	1606
114	,	1607
115	,	1607
115	,	1608
115	,	1609
115	,	1610
115	,	1611
115	,	1612
115	,	1613
115	,	1614
115	,	1615
115	,	1616
116	,	1616
117	,	1616
117	,	1617
117	,	1618
117	,	1619
117	,	1620
117	,	1621
117	,	1622
117	,	1623
117	,	1624
117	,	1625
117	,	1626
117	,	1627
117	,	1628
117	,	1629
117	,	1630
117	,	1631
118	,	1631
118	,	1632
118	,	1633
118	,	1634
118	,	1635
118	,	1636
118	,	1637
118	,	1638
118	,	1639
118	,	1640
118	,	1641
118	,	1642
118	,	1643
118	,	1644
118	,	1645
118	,	1646
118	,	1647
118	,	1648
118	,	1649
118	,	1650
118	,	1651
118	,	1652
118	,	1653
118	,	1654
118	,	1655
119	,	1655
119	,	1656
119	,	1657
119	,	1658
119	,	1659
119	,	1660
120	,	1660
120	,	1661
120	,	1662
120	,	1663
120	,	1664
120	,	1665
120	,	1666
120	,	1667
120	,	1668
120	,	1669
120	,	1670
120	,	1671
120	,	1672
120	,	1673
120	,	1674
120	,	1675
120	,	1676
120	,	1677
121	,	1677
121	,	1678
121	,	1679
121	,	1680
121	,	1681
121	,	1682
121	,	1683
121	,	1684
121	,	1685
121	,	1686
121	,	1687
121	,	1688
121	,	1689
121	,	1690
121	,	1691
121	,	1692
121	,	1693
121	,	1694
121	,	1695
121	,	1696
121	,	1697
121	,	1698
121	,	1699
121	,	1700
121	,	1701
121	,	1702
121	,	1703
122	,	1703
122	,	1704
122	,	1705
122	,	1706
122	,	1707
122	,	1708
122	,	1709
122	,	1710
122	,	1711
122	,	1712
122	,	1713
122	,	1714
123	,	1714
124	,	1714
124	,	1715
124	,	1716
124	,	1717
124	,	1718
124	,	1719
124	,	1720
125	,	1720
125	,	1721
125	,	1722
125	,	1723
125	,	1724
125	,	1725
125	,	1726
125	,	1727
125	,	1728
125	,	1729
125	,	1730
125	,	1731
125	,	1732
125	,	1733
125	,	1734
125	,	1735
126	,	1735
126	,	1736
126	,	1737
126	,	1738
126	,	1739
126	,	1740
126	,	1741
126	,	1742
126	,	1743
126	,	1744
126	,	1745
126	,	1746
126	,	1747
126	,	1748
126	,	1749
127	,	1749
127	,	1750
127	,	1751
127	,	1752
127	,	1753
127	,	1754
127	,	1755
127	,	1756
127	,	1757
127	,	1758
127	,	1759
127	,	1760
127	,	1761
127	,	1762
127	,	1763
127	,	1764
127	,	1765
127	,	1766
127	,	1767
127	,	1768
127	,	1769
127	,	1770
127	,	1771
127	,	1772
127	,	1773
127	,	1774
127	,	1775
127	,	1776
128	,	1776
128	,	1777
128	,	1778
128	,	1779
128	,	1780
128	,	1781
128	,	1782
128	,	1783
128	,	1784
128	,	1785
128	,	1786
128	,	1787
128	,	1788
128	,	1789
129	,	1789
129	,	1790
129	,	1791
129	,	1792
129	,	1793
129	,	1794
129	,	1795
129	,	1796
129	,	1797
129	,	1798
129	,	1799
129	,	1800
129	,	1801
129	,	1802
129	,	1803
129	,	1804
129	,	1805
129	,	1806
129	,	1807
129	,	1808
129	,	1809
129	,	1810
129	,	1811
129	,	1812
129	,	1813
129	,	1814
129	,	1815
129	,	1816
129	,	1817
129	,	1818
129	,	1819
129	,	1820
129	,	1821
129	,	1822
129	,	1823
129	,	1824
129	,	1825
129	,	1826
129	,	1827
129	,	1828
129	,	1829
129	,	1830
129	,	1831
129	,	1832
129	,	1833
129	,	1834
129	,	1835
129	,	1836
129	,	1837
129	,	1838
129	,	1839
130	,	1839
130	,	1840
130	,	1841
130	,	1842
130	,	1843
130	,	1844
130	,	1845
130	,	1846
130	,	1847
130	,	1848
131	,	1848
131	,	1849
131	,	1850
131	,	1851
131	,	1852
131	,	1853
131	,	1854
131	,	1855
131	,	1856
131	,	1857
131	,	1858
131	,	1859
131	,	1860
131	,	1861
131	,	1862
131	,	1863
131	,	1864
131	,	1865
131	,	1866
131	,	1867
131	,	1868
131	,	1869
