Number entered was: 12620412766660757083682346612808810332603842493455982262619417329771452766067027842798709928144743986714584026942107455023
0	,	1
0	,	2
0	,	3
0	,	4
0	,	5
0	,	6
0	,	7
0	,	8
1	,	8
1	,	9
1	,	10
1	,	11
1	,	12
1	,	13
1	,	14
1	,	15
1	,	16
2	,	16
2	,	17
2	,	18
2	,	19
2	,	20
2	,	21
2	,	22
2	,	23
3	,	23
3	,	24
3	,	25
3	,	26
3	,	27
3	,	28
3	,	29
3	,	30
3	,	31
4	,	31
4	,	32
4	,	33
5	,	33
5	,	34
5	,	35
5	,	36
5	,	37
5	,	38
5	,	39
5	,	40
6	,	40
6	,	41
6	,	42
6	,	43
7	,	43
7	,	44
7	,	45
7	,	46
7	,	47
7	,	48
7	,	49
7	,	50
7	,	51
7	,	52
7	,	53
7	,	54
7	,	55
7	,	56
7	,	57
8	,	57
8	,	58
8	,	59
8	,	60
9	,	60
9	,	61
9	,	62
9	,	63
9	,	64
9	,	65
9	,	66
9	,	67
9	,	68
9	,	69
9	,	70
10	,	70
10	,	71
10	,	72
10	,	73
10	,	74
11	,	74
11	,	75
11	,	76
11	,	77
12	,	77
12	,	78
12	,	79
12	,	80
12	,	81
12	,	82
12	,	83
12	,	84
12	,	85
13	,	85
13	,	86
13	,	87
13	,	88
13	,	89
13	,	90
13	,	91
14	,	91
14	,	92
14	,	93
14	,	94
14	,	95
14	,	96
14	,	97
14	,	98
14	,	99
14	,	100
14	,	101
14	,	102
14	,	103
14	,	104
14	,	105
14	,	106
15	,	106
15	,	107
15	,	108
15	,	109
15	,	110
15	,	111
15	,	112
15	,	113
15	,	114
15	,	115
15	,	116
15	,	117
15	,	118
15	,	119
15	,	120
16	,	120
16	,	121
16	,	122
16	,	123
16	,	124
16	,	125
16	,	126
16	,	127
16	,	128
16	,	129
16	,	130
17	,	130
17	,	131
17	,	132
17	,	133
18	,	133
18	,	134
18	,	135
18	,	136
18	,	137
18	,	138
18	,	139
18	,	140
18	,	141
18	,	142
18	,	143
18	,	144
18	,	145
18	,	146
18	,	147
18	,	148
18	,	149
18	,	150
18	,	151
18	,	152
18	,	153
18	,	154
18	,	155
18	,	156
18	,	157
18	,	158
18	,	159
18	,	160
18	,	161
18	,	162
18	,	163
18	,	164
18	,	165
18	,	166
18	,	167
18	,	168
18	,	169
18	,	170
18	,	171
19	,	171
19	,	172
19	,	173
20	,	173
20	,	174
20	,	175
20	,	176
20	,	177
20	,	178
20	,	179
20	,	180
20	,	181
21	,	181
21	,	182
21	,	183
21	,	184
21	,	185
21	,	186
21	,	187
21	,	188
21	,	189
21	,	190
21	,	191
21	,	192
21	,	193
21	,	194
21	,	195
22	,	195
23	,	195
23	,	196
23	,	197
23	,	198
23	,	199
24	,	199
24	,	200
24	,	201
24	,	202
24	,	203
24	,	204
24	,	205
24	,	206
24	,	207
24	,	208
24	,	209
24	,	210
24	,	211
24	,	212
24	,	213
24	,	214
24	,	215
24	,	216
24	,	217
24	,	218
24	,	219
24	,	220
24	,	221
24	,	222
24	,	223
24	,	224
24	,	225
24	,	226
24	,	227
24	,	228
24	,	229
24	,	230
24	,	231
24	,	232
24	,	233
24	,	234
25	,	234
25	,	235
26	,	235
26	,	236
26	,	237
26	,	238
26	,	239
26	,	240
26	,	241
26	,	242
26	,	243
26	,	244
27	,	244
27	,	245
28	,	245
28	,	246
28	,	247
28	,	248
28	,	249
28	,	250
28	,	251
28	,	252
28	,	253
29	,	253
29	,	254
29	,	255
29	,	256
29	,	257
29	,	258
29	,	259
29	,	260
30	,	260
30	,	261
30	,	262
30	,	263
30	,	264
30	,	265
30	,	266
30	,	267
30	,	268
31	,	268
31	,	269
31	,	270
31	,	271
31	,	272
31	,	273
31	,	274
32	,	274
32	,	275
32	,	276
32	,	277
32	,	278
32	,	279
32	,	280
32	,	281
32	,	282
32	,	283
32	,	284
32	,	285
32	,	286
32	,	287
32	,	288
33	,	288
33	,	289
33	,	290
33	,	291
33	,	292
33	,	293
33	,	294
33	,	295
33	,	296
34	,	296
34	,	297
34	,	298
34	,	299
34	,	300
34	,	301
35	,	301
35	,	302
35	,	303
35	,	304
35	,	305
35	,	306
35	,	307
35	,	308
36	,	308
36	,	309
36	,	310
36	,	311
36	,	312
36	,	313
36	,	314
36	,	315
36	,	316
36	,	317
36	,	318
36	,	319
36	,	320
36	,	321
36	,	322
36	,	323
36	,	324
36	,	325
36	,	326
36	,	327
36	,	328
36	,	329
36	,	330
36	,	331
36	,	332
36	,	333
36	,	334
36	,	335
36	,	336
36	,	337
36	,	338
37	,	338
37	,	339
38	,	339
38	,	340
38	,	341
38	,	342
38	,	343
38	,	344
38	,	345
39	,	345
39	,	346
39	,	347
39	,	348
39	,	349
39	,	350
40	,	350
40	,	351
40	,	352
40	,	353
41	,	353
41	,	354
41	,	355
41	,	356
41	,	357
41	,	358
41	,	359
42	,	359
42	,	360
42	,	361
42	,	362
42	,	363
42	,	364
42	,	365
42	,	366
42	,	367
42	,	368
42	,	369
42	,	370
42	,	371
43	,	371
43	,	372
43	,	373
43	,	374
43	,	375
43	,	376
43	,	377
43	,	378
43	,	379
43	,	380
43	,	381
44	,	381
44	,	382
44	,	383
44	,	384
44	,	385
44	,	386
44	,	387
44	,	388
44	,	389
45	,	389
45	,	390
45	,	391
45	,	392
46	,	392
46	,	393
46	,	394
46	,	395
46	,	396
46	,	397
46	,	398
46	,	399
46	,	400
46	,	401
46	,	402
46	,	403
46	,	404
46	,	405
46	,	406
46	,	407
46	,	408
46	,	409
46	,	410
46	,	411
46	,	412
46	,	413
46	,	414
46	,	415
46	,	416
46	,	417
46	,	418
47	,	418
47	,	419
47	,	420
47	,	421
47	,	422
47	,	423
47	,	424
47	,	425
47	,	426
47	,	427
47	,	428
47	,	429
47	,	430
47	,	431
47	,	432
47	,	433
47	,	434
47	,	435
47	,	436
47	,	437
47	,	438
47	,	439
47	,	440
47	,	441
47	,	442
47	,	443
48	,	443
48	,	444
48	,	445
48	,	446
48	,	447
48	,	448
48	,	449
48	,	450
48	,	451
48	,	452
48	,	453
48	,	454
48	,	455
48	,	456
48	,	457
49	,	457
49	,	458
49	,	459
49	,	460
49	,	461
49	,	462
49	,	463
49	,	464
49	,	465
49	,	466
49	,	467
49	,	468
49	,	469
49	,	470
49	,	471
50	,	471
50	,	472
50	,	473
51	,	473
51	,	474
51	,	475
51	,	476
51	,	477
51	,	478
51	,	479
51	,	480
51	,	481
51	,	482
51	,	483
52	,	483
52	,	484
52	,	485
52	,	486
52	,	487
52	,	488
52	,	489
52	,	490
52	,	491
52	,	492
52	,	493
52	,	494
52	,	495
52	,	496
52	,	497
52	,	498
52	,	499
52	,	500
52	,	501
52	,	502
52	,	503
52	,	504
52	,	505
53	,	505
53	,	506
53	,	507
53	,	508
53	,	509
54	,	509
54	,	510
54	,	511
54	,	512
54	,	513
54	,	514
55	,	514
55	,	515
55	,	516
55	,	517
55	,	518
55	,	519
55	,	520
55	,	521
55	,	522
55	,	523
55	,	524
55	,	525
55	,	526
55	,	527
55	,	528
55	,	529
55	,	530
55	,	531
56	,	531
57	,	531
57	,	532
57	,	533
57	,	534
57	,	535
57	,	536
57	,	537
58	,	537
58	,	538
58	,	539
58	,	540
58	,	541
58	,	542
58	,	543
58	,	544
58	,	545
58	,	546
58	,	547
58	,	548
58	,	549
58	,	550
58	,	551
58	,	552
58	,	553
58	,	554
59	,	554
59	,	555
59	,	556
59	,	557
59	,	558
59	,	559
59	,	560
59	,	561
59	,	562
59	,	563
59	,	564
59	,	565
59	,	566
59	,	567
59	,	568
59	,	569
59	,	570
59	,	571
59	,	572
59	,	573
59	,	574
59	,	575
59	,	576
59	,	577
59	,	578
59	,	579
59	,	580
59	,	581
59	,	582
60	,	582
60	,	583
60	,	584
60	,	585
60	,	586
60	,	587
60	,	588
60	,	589
60	,	590
60	,	591
60	,	592
60	,	593
60	,	594
60	,	595
61	,	595
62	,	595
62	,	596
62	,	597
63	,	597
64	,	597
64	,	598
64	,	599
64	,	600
64	,	601
64	,	602
64	,	603
64	,	604
64	,	605
64	,	606
64	,	607
64	,	608
65	,	608
65	,	609
65	,	610
65	,	611
65	,	612
65	,	613
65	,	614
66	,	614
66	,	615
67	,	615
67	,	616
67	,	617
67	,	618
67	,	619
67	,	620
67	,	621
67	,	622
67	,	623
67	,	624
67	,	625
67	,	626
67	,	627
67	,	628
67	,	629
67	,	630
67	,	631
67	,	632
67	,	633
67	,	634
67	,	635
67	,	636
67	,	637
67	,	638
67	,	639
67	,	640
67	,	641
67	,	642
67	,	643
67	,	644
67	,	645
67	,	646
67	,	647
67	,	648
67	,	649
67	,	650
67	,	651
67	,	652
67	,	653
67	,	654
67	,	655
67	,	656
67	,	657
67	,	658
67	,	659
67	,	660
67	,	661
67	,	662
67	,	663
67	,	664
67	,	665
67	,	666
67	,	667
67	,	668
67	,	669
67	,	670
67	,	671
67	,	672
67	,	673
67	,	674
67	,	675
67	,	676
67	,	677
67	,	678
67	,	679
67	,	680
67	,	681
67	,	682
68	,	682
68	,	683
68	,	684
68	,	685
68	,	686
68	,	687
68	,	688
68	,	689
68	,	690
68	,	691
68	,	692
68	,	693
68	,	694
68	,	695
68	,	696
68	,	697
68	,	698
68	,	699
68	,	700
68	,	701
68	,	702
68	,	703
68	,	704
68	,	705
68	,	706
68	,	707
68	,	708
68	,	709
68	,	710
68	,	711
68	,	712
68	,	713
68	,	714
68	,	715
68	,	716
68	,	717
68	,	718
68	,	719
68	,	720
68	,	721
68	,	722
68	,	723
68	,	724
68	,	725
68	,	726
68	,	727
68	,	728
69	,	728
69	,	729
69	,	730
69	,	731
69	,	732
70	,	732
70	,	733
70	,	734
70	,	735
70	,	736
70	,	737
70	,	738
70	,	739
70	,	740
71	,	740
71	,	741
71	,	742
71	,	743
71	,	744
71	,	745
71	,	746
71	,	747
71	,	748
71	,	749
71	,	750
71	,	751
71	,	752
72	,	752
72	,	753
72	,	754
72	,	755
72	,	756
72	,	757
72	,	758
72	,	759
72	,	760
72	,	761
72	,	762
72	,	763
72	,	764
72	,	765
73	,	765
73	,	766
73	,	767
74	,	767
74	,	768
74	,	769
74	,	770
74	,	771
74	,	772
74	,	773
74	,	774
74	,	775
75	,	775
75	,	776
75	,	777
75	,	778
75	,	779
75	,	780
75	,	781
75	,	782
75	,	783
75	,	784
75	,	785
75	,	786
75	,	787
75	,	788
75	,	789
75	,	790
76	,	790
76	,	791
76	,	792
76	,	793
76	,	794
76	,	795
76	,	796
76	,	797
76	,	798
76	,	799
76	,	800
76	,	801
76	,	802
76	,	803
76	,	804
76	,	805
76	,	806
76	,	807
76	,	808
76	,	809
76	,	810
77	,	810
77	,	811
77	,	812
77	,	813
77	,	814
77	,	815
77	,	816
77	,	817
77	,	818
77	,	819
77	,	820
77	,	821
77	,	822
77	,	823
77	,	824
77	,	825
77	,	826
78	,	826
79	,	826
79	,	827
79	,	828
79	,	829
79	,	830
79	,	831
80	,	831
80	,	832
80	,	833
80	,	834
81	,	834
81	,	835
81	,	836
81	,	837
81	,	838
81	,	839
81	,	840
81	,	841
81	,	842
81	,	843
81	,	844
81	,	845
81	,	846
81	,	847
81	,	848
81	,	849
81	,	850
81	,	851
81	,	852
81	,	853
81	,	854
82	,	854
82	,	855
83	,	855
83	,	856
83	,	857
83	,	858
83	,	859
83	,	860
83	,	861
83	,	862
83	,	863
83	,	864
84	,	864
84	,	865
84	,	866
84	,	867
84	,	868
84	,	869
84	,	870
84	,	871
84	,	872
84	,	873
84	,	874
84	,	875
84	,	876
85	,	876
85	,	877
85	,	878
85	,	879
85	,	880
85	,	881
85	,	882
85	,	883
85	,	884
85	,	885
85	,	886
85	,	887
85	,	888
85	,	889
85	,	890
85	,	891
85	,	892
85	,	893
85	,	894
86	,	894
86	,	895
86	,	896
86	,	897
86	,	898
86	,	899
86	,	900
86	,	901
86	,	902
86	,	903
87	,	903
87	,	904
87	,	905
88	,	905
88	,	906
88	,	907
89	,	907
89	,	908
90	,	908
90	,	909
90	,	910
90	,	911
90	,	912
91	,	912
91	,	913
91	,	914
92	,	914
92	,	915
92	,	916
92	,	917
92	,	918
92	,	919
92	,	920
92	,	921
92	,	922
93	,	922
93	,	923
93	,	924
93	,	925
93	,	926
93	,	927
93	,	928
93	,	929
93	,	930
93	,	931
93	,	932
93	,	933
93	,	934
93	,	935
93	,	936
93	,	937
93	,	938
93	,	939
93	,	940
93	,	941
93	,	942
93	,	943
93	,	944
93	,	945
93	,	946
93	,	947
93	,	948
93	,	949
93	,	950
93	,	951
93	,	952
93	,	953
93	,	954
93	,	955
93	,	956
93	,	957
93	,	958
93	,	959
93	,	960
93	,	961
93	,	962
93	,	963
93	,	964
93	,	965
93	,	966
93	,	967
93	,	968
94	,	968
94	,	969
95	,	969
96	,	969
96	,	970
96	,	971
96	,	972
97	,	972
97	,	973
97	,	974
97	,	975
97	,	976
98	,	976
98	,	977
98	,	978
98	,	979
98	,	980
98	,	981
98	,	982
98	,	983
98	,	984
99	,	984
99	,	985
99	,	986
99	,	987
99	,	988
99	,	989
99	,	990
99	,	991
99	,	992
99	,	993
99	,	994
99	,	995
99	,	996
99	,	997
99	,	998
99	,	999
99	,	1000
99	,	1001
99	,	1002
99	,	1003
99	,	1004
100	,	1004
100	,	1005
100	,	1006
100	,	1007
101	,	1007
101	,	1008
101	,	1009
102	,	1009
102	,	1010
102	,	1011
102	,	1012
102	,	1013
102	,	1014
102	,	1015
102	,	1016
102	,	1017
102	,	1018
102	,	1019
102	,	1020
102	,	1021
102	,	1022
102	,	1023
102	,	1024
102	,	1025
102	,	1026
102	,	1027
102	,	1028
102	,	1029
102	,	1030
102	,	1031
102	,	1032
102	,	1033
102	,	1034
102	,	1035
102	,	1036
102	,	1037
102	,	1038
102	,	1039
102	,	1040
102	,	1041
102	,	1042
102	,	1043
102	,	1044
103	,	1044
103	,	1045
103	,	1046
103	,	1047
103	,	1048
103	,	1049
103	,	1050
103	,	1051
103	,	1052
103	,	1053
103	,	1054
103	,	1055
103	,	1056
103	,	1057
103	,	1058
103	,	1059
103	,	1060
103	,	1061
103	,	1062
103	,	1063
103	,	1064
103	,	1065
103	,	1066
103	,	1067
103	,	1068
103	,	1069
103	,	1070
103	,	1071
103	,	1072
103	,	1073
103	,	1074
103	,	1075
103	,	1076
103	,	1077
103	,	1078
103	,	1079
103	,	1080
103	,	1081
103	,	1082
103	,	1083
103	,	1084
103	,	1085
103	,	1086
103	,	1087
103	,	1088
103	,	1089
103	,	1090
103	,	1091
103	,	1092
103	,	1093
103	,	1094
103	,	1095
103	,	1096
104	,	1096
104	,	1097
104	,	1098
104	,	1099
104	,	1100
104	,	1101
104	,	1102
104	,	1103
105	,	1103
105	,	1104
105	,	1105
105	,	1106
105	,	1107
105	,	1108
105	,	1109
105	,	1110
105	,	1111
105	,	1112
105	,	1113
105	,	1114
105	,	1115
105	,	1116
105	,	1117
105	,	1118
105	,	1119
105	,	1120
105	,	1121
105	,	1122
105	,	1123
105	,	1124
105	,	1125
105	,	1126
106	,	1126
106	,	1127
106	,	1128
106	,	1129
106	,	1130
106	,	1131
106	,	1132
106	,	1133
106	,	1134
106	,	1135
106	,	1136
106	,	1137
106	,	1138
106	,	1139
106	,	1140
106	,	1141
106	,	1142
106	,	1143
106	,	1144
106	,	1145
106	,	1146
106	,	1147
106	,	1148
106	,	1149
106	,	1150
106	,	1151
106	,	1152
106	,	1153
106	,	1154
106	,	1155
106	,	1156
106	,	1157
106	,	1158
106	,	1159
107	,	1159
107	,	1160
107	,	1161
107	,	1162
107	,	1163
107	,	1164
107	,	1165
107	,	1166
107	,	1167
107	,	1168
107	,	1169
107	,	1170
108	,	1170
108	,	1171
109	,	1171
109	,	1172
110	,	1172
110	,	1173
110	,	1174
110	,	1175
110	,	1176
110	,	1177
110	,	1178
110	,	1179
110	,	1180
110	,	1181
110	,	1182
110	,	1183
110	,	1184
110	,	1185
110	,	1186
110	,	1187
110	,	1188
110	,	1189
110	,	1190
110	,	1191
110	,	1192
110	,	1193
110	,	1194
110	,	1195
110	,	1196
110	,	1197
110	,	1198
110	,	1199
110	,	1200
110	,	1201
110	,	1202
110	,	1203
110	,	1204
110	,	1205
110	,	1206
110	,	1207
110	,	1208
111	,	1208
111	,	1209
111	,	1210
111	,	1211
111	,	1212
111	,	1213
111	,	1214
111	,	1215
111	,	1216
111	,	1217
111	,	1218
111	,	1219
112	,	1219
112	,	1220
113	,	1220
113	,	1221
114	,	1221
114	,	1222
114	,	1223
114	,	1224
115	,	1224
115	,	1225
115	,	1226
115	,	1227
115	,	1228
115	,	1229
115	,	1230
115	,	1231
116	,	1231
116	,	1232
116	,	1233
116	,	1234
116	,	1235
116	,	1236
116	,	1237
116	,	1238
116	,	1239
116	,	1240
116	,	1241
116	,	1242
116	,	1243
116	,	1244
116	,	1245
116	,	1246
116	,	1247
116	,	1248
116	,	1249
117	,	1249
117	,	1250
117	,	1251
117	,	1252
117	,	1253
118	,	1253
118	,	1254
118	,	1255
118	,	1256
118	,	1257
118	,	1258
118	,	1259
118	,	1260
118	,	1261
118	,	1262
118	,	1263
118	,	1264
118	,	1265
118	,	1266
118	,	1267
118	,	1268
118	,	1269
118	,	1270
118	,	1271
118	,	1272
118	,	1273
118	,	1274
118	,	1275
118	,	1276
118	,	1277
118	,	1278
118	,	1279
118	,	1280
118	,	1281
118	,	1282
118	,	1283
118	,	1284
118	,	1285
118	,	1286
119	,	1286
119	,	1287
119	,	1288
119	,	1289
119	,	1290
119	,	1291
119	,	1292
119	,	1293
119	,	1294
119	,	1295
119	,	1296
120	,	1296
120	,	1297
120	,	1298
120	,	1299
120	,	1300
120	,	1301
120	,	1302
120	,	1303
120	,	1304
120	,	1305
120	,	1306
120	,	1307
120	,	1308
120	,	1309
121	,	1309
121	,	1310
121	,	1311
121	,	1312
121	,	1313
122	,	1313
122	,	1314
122	,	1315
122	,	1316
122	,	1317
122	,	1318
122	,	1319
122	,	1320
122	,	1321
122	,	1322
122	,	1323
122	,	1324
122	,	1325
122	,	1326
122	,	1327
123	,	1327
123	,	1328
123	,	1329
124	,	1329
124	,	1330
124	,	1331
124	,	1332
124	,	1333
125	,	1333
125	,	1334
125	,	1335
125	,	1336
125	,	1337
125	,	1338
125	,	1339
125	,	1340
125	,	1341
125	,	1342
125	,	1343
125	,	1344
125	,	1345
125	,	1346
125	,	1347
125	,	1348
125	,	1349
125	,	1350
125	,	1351
125	,	1352
125	,	1353
125	,	1354
125	,	1355
125	,	1356
125	,	1357
125	,	1358
125	,	1359
125	,	1360
125	,	1361
125	,	1362
125	,	1363
125	,	1364
125	,	1365
125	,	1366
125	,	1367
126	,	1367
126	,	1368
126	,	1369
126	,	1370
127	,	1370
127	,	1371
127	,	1372
127	,	1373
127	,	1374
127	,	1375
127	,	1376
127	,	1377
127	,	1378
127	,	1379
127	,	1380
127	,	1381
127	,	1382
127	,	1383
127	,	1384
127	,	1385
127	,	1386
127	,	1387
128	,	1387
128	,	1388
128	,	1389
128	,	1390
128	,	1391
128	,	1392
128	,	1393
129	,	1393
129	,	1394
129	,	1395
129	,	1396
129	,	1397
130	,	1397
130	,	1398
130	,	1399
130	,	1400
130	,	1401
130	,	1402
130	,	1403
130	,	1404
130	,	1405
130	,	1406
130	,	1407
130	,	1408
130	,	1409
130	,	1410
130	,	1411
130	,	1412
130	,	1413
130	,	1414
130	,	1415
130	,	1416
130	,	1417
130	,	1418
130	,	1419
130	,	1420
130	,	1421
130	,	1422
130	,	1423
130	,	1424
131	,	1424
131	,	1425
131	,	1426
131	,	1427
131	,	1428
131	,	1429
131	,	1430
131	,	1431
131	,	1432
132	,	1432
132	,	1433
132	,	1434
132	,	1435
132	,	1436
132	,	1437
132	,	1438
132	,	1439
132	,	1440
132	,	1441
133	,	1441
134	,	1441
134	,	1442
134	,	1443
134	,	1444
134	,	1445
134	,	1446
134	,	1447
134	,	1448
134	,	1449
134	,	1450
134	,	1451
134	,	1452
134	,	1453
134	,	1454
134	,	1455
134	,	1456
134	,	1457
135	,	1457
135	,	1458
135	,	1459
135	,	1460
135	,	1461
135	,	1462
135	,	1463
135	,	1464
135	,	1465
135	,	1466
135	,	1467
135	,	1468
135	,	1469
135	,	1470
135	,	1471
135	,	1472
135	,	1473
135	,	1474
135	,	1475
135	,	1476
135	,	1477
135	,	1478
135	,	1479
135	,	1480
136	,	1480
136	,	1481
137	,	1481
137	,	1482
137	,	1483
138	,	1483
138	,	1484
138	,	1485
139	,	1485
139	,	1486
139	,	1487
139	,	1488
139	,	1489
139	,	1490
139	,	1491
139	,	1492
139	,	1493
140	,	1493
140	,	1494
140	,	1495
140	,	1496
140	,	1497
140	,	1498
140	,	1499
140	,	1500
141	,	1500
141	,	1501
141	,	1502
141	,	1503
141	,	1504
141	,	1505
141	,	1506
141	,	1507
141	,	1508
141	,	1509
141	,	1510
141	,	1511
141	,	1512
141	,	1513
141	,	1514
141	,	1515
141	,	1516
141	,	1517
141	,	1518
141	,	1519
141	,	1520
141	,	1521
141	,	1522
141	,	1523
141	,	1524
142	,	1524
142	,	1525
142	,	1526
142	,	1527
142	,	1528
142	,	1529
142	,	1530
142	,	1531
142	,	1532
142	,	1533
142	,	1534
143	,	1534
143	,	1535
143	,	1536
143	,	1537
143	,	1538
143	,	1539
143	,	1540
143	,	1541
143	,	1542
143	,	1543
143	,	1544
143	,	1545
143	,	1546
144	,	1546
144	,	1547
144	,	1548
145	,	1548
145	,	1549
145	,	1550
145	,	1551
145	,	1552
145	,	1553
145	,	1554
145	,	1555
145	,	1556
145	,	1557
145	,	1558
145	,	1559
145	,	1560
145	,	1561
145	,	1562
145	,	1563
145	,	1564
145	,	1565
145	,	1566
145	,	1567
145	,	1568
145	,	1569
145	,	1570
145	,	1571
145	,	1572
145	,	1573
145	,	1574
145	,	1575
145	,	1576
145	,	1577
145	,	1578
145	,	1579
145	,	1580
145	,	1581
145	,	1582
145	,	1583
145	,	1584
145	,	1585
145	,	1586
145	,	1587
145	,	1588
145	,	1589
146	,	1589
146	,	1590
146	,	1591
146	,	1592
146	,	1593
146	,	1594
146	,	1595
146	,	1596
146	,	1597
146	,	1598
147	,	1598
148	,	1598
148	,	1599
148	,	1600
148	,	1601
148	,	1602
149	,	1602
149	,	1603
149	,	1604
149	,	1605
149	,	1606
149	,	1607
149	,	1608
149	,	1609
150	,	1609
150	,	1610
150	,	1611
151	,	1611
152	,	1611
152	,	1612
152	,	1613
152	,	1614
152	,	1615
152	,	1616
152	,	1617
152	,	1618
152	,	1619
152	,	1620
152	,	1621
152	,	1622
152	,	1623
152	,	1624
152	,	1625
152	,	1626
152	,	1627
152	,	1628
152	,	1629
152	,	1630
152	,	1631
152	,	1632
152	,	1633
152	,	1634
152	,	1635
152	,	1636
152	,	1637
152	,	1638
152	,	1639
152	,	1640
152	,	1641
152	,	1642
152	,	1643
152	,	1644
152	,	1645
152	,	1646
152	,	1647
152	,	1648
152	,	1649
152	,	1650
152	,	1651
153	,	1651
153	,	1652
153	,	1653
153	,	1654
153	,	1655
153	,	1656
153	,	1657
153	,	1658
153	,	1659
153	,	1660
153	,	1661
153	,	1662
153	,	1663
153	,	1664
153	,	1665
153	,	1666
153	,	1667
153	,	1668
153	,	1669
153	,	1670
153	,	1671
153	,	1672
153	,	1673
153	,	1674
153	,	1675
153	,	1676
153	,	1677
153	,	1678
153	,	1679
153	,	1680
154	,	1680
155	,	1680
155	,	1681
155	,	1682
155	,	1683
155	,	1684
156	,	1684
156	,	1685
156	,	1686
156	,	1687
156	,	1688
157	,	1688
158	,	1688
158	,	1689
158	,	1690
158	,	1691
158	,	1692
158	,	1693
158	,	1694
158	,	1695
158	,	1696
158	,	1697
158	,	1698
158	,	1699
158	,	1700
158	,	1701
158	,	1702
159	,	1702
160	,	1702
160	,	1703
160	,	1704
160	,	1705
160	,	1706
160	,	1707
160	,	1708
160	,	1709
160	,	1710
160	,	1711
160	,	1712
160	,	1713
160	,	1714
160	,	1715
160	,	1716
160	,	1717
160	,	1718
160	,	1719
160	,	1720
160	,	1721
160	,	1722
160	,	1723
160	,	1724
160	,	1725
161	,	1725
161	,	1726
161	,	1727
161	,	1728
161	,	1729
161	,	1730
162	,	1730
162	,	1731
162	,	1732
162	,	1733
162	,	1734
162	,	1735
162	,	1736
162	,	1737
162	,	1738
162	,	1739
162	,	1740
162	,	1741
162	,	1742
162	,	1743
162	,	1744
162	,	1745
162	,	1746
162	,	1747
162	,	1748
162	,	1749
162	,	1750
162	,	1751
162	,	1752
162	,	1753
162	,	1754
162	,	1755
162	,	1756
162	,	1757
162	,	1758
162	,	1759
162	,	1760
162	,	1761
162	,	1762
162	,	1763
162	,	1764
162	,	1765
163	,	1765
163	,	1766
163	,	1767
163	,	1768
163	,	1769
163	,	1770
163	,	1771
163	,	1772
163	,	1773
163	,	1774
163	,	1775
163	,	1776
163	,	1777
163	,	1778
163	,	1779
163	,	1780
163	,	1781
163	,	1782
163	,	1783
163	,	1784
163	,	1785
163	,	1786
163	,	1787
163	,	1788
163	,	1789
163	,	1790
163	,	1791
163	,	1792
163	,	1793
163	,	1794
163	,	1795
163	,	1796
163	,	1797
163	,	1798
163	,	1799
163	,	1800
163	,	1801
163	,	1802
163	,	1803
163	,	1804
163	,	1805
163	,	1806
163	,	1807
163	,	1808
163	,	1809
163	,	1810
163	,	1811
163	,	1812
163	,	1813
163	,	1814
163	,	1815
163	,	1816
163	,	1817
163	,	1818
163	,	1819
163	,	1820
163	,	1821
164	,	1821
165	,	1821
165	,	1822
165	,	1823
165	,	1824
165	,	1825
165	,	1826
165	,	1827
166	,	1827
166	,	1828
166	,	1829
166	,	1830
167	,	1830
167	,	1831
167	,	1832
167	,	1833
