Number entered was: 1790707753365795418841729699379193276395981524363782327873718589639655966058578374254964039644910359346857311359948708984278578450069871685344678652553655035251602806563637363071753327728754995053415389279785107516999221971781597724733184279534477239566789173532366357270583106789
0	,	1
0	,	2
0	,	3
0	,	4
0	,	5
0	,	6
0	,	7
0	,	8
0	,	9
0	,	10
0	,	11
0	,	12
0	,	13
1	,	13
1	,	14
1	,	15
1	,	16
2	,	16
2	,	17
2	,	18
2	,	19
2	,	20
2	,	21
2	,	22
2	,	23
2	,	24
2	,	25
2	,	26
2	,	27
2	,	28
2	,	29
2	,	30
2	,	31
2	,	32
2	,	33
2	,	34
2	,	35
3	,	35
3	,	36
3	,	37
3	,	38
3	,	39
3	,	40
3	,	41
3	,	42
4	,	42
4	,	43
5	,	43
5	,	44
5	,	45
6	,	45
6	,	46
6	,	47
6	,	48
6	,	49
6	,	50
6	,	51
6	,	52
6	,	53
6	,	54
6	,	55
6	,	56
6	,	57
6	,	58
6	,	59
6	,	60
6	,	61
6	,	62
7	,	62
7	,	63
7	,	64
7	,	65
7	,	66
7	,	67
7	,	68
8	,	68
9	,	68
9	,	69
9	,	70
9	,	71
9	,	72
9	,	73
9	,	74
9	,	75
9	,	76
9	,	77
9	,	78
9	,	79
9	,	80
9	,	81
9	,	82
9	,	83
9	,	84
9	,	85
9	,	86
9	,	87
9	,	88
9	,	89
9	,	90
9	,	91
9	,	92
9	,	93
9	,	94
9	,	95
9	,	96
9	,	97
9	,	98
10	,	98
10	,	99
10	,	100
10	,	101
10	,	102
10	,	103
10	,	104
10	,	105
10	,	106
10	,	107
10	,	108
10	,	109
10	,	110
10	,	111
10	,	112
10	,	113
10	,	114
10	,	115
10	,	116
10	,	117
10	,	118
10	,	119
10	,	120
10	,	121
10	,	122
11	,	122
11	,	123
11	,	124
11	,	125
12	,	125
12	,	126
12	,	127
12	,	128
12	,	129
12	,	130
12	,	131
12	,	132
12	,	133
12	,	134
12	,	135
12	,	136
12	,	137
12	,	138
12	,	139
12	,	140
12	,	141
12	,	142
12	,	143
12	,	144
12	,	145
12	,	146
12	,	147
12	,	148
12	,	149
12	,	150
12	,	151
13	,	151
13	,	152
13	,	153
13	,	154
13	,	155
13	,	156
13	,	157
13	,	158
13	,	159
13	,	160
13	,	161
13	,	162
13	,	163
14	,	163
14	,	164
14	,	165
14	,	166
14	,	167
14	,	168
14	,	169
14	,	170
14	,	171
14	,	172
14	,	173
14	,	174
14	,	175
14	,	176
14	,	177
14	,	178
14	,	179
14	,	180
14	,	181
14	,	182
14	,	183
14	,	184
14	,	185
14	,	186
14	,	187
14	,	188
14	,	189
15	,	189
15	,	190
15	,	191
15	,	192
16	,	192
17	,	192
17	,	193
17	,	194
18	,	194
19	,	194
19	,	195
19	,	196
19	,	197
19	,	198
19	,	199
19	,	200
19	,	201
19	,	202
19	,	203
19	,	204
19	,	205
19	,	206
19	,	207
19	,	208
19	,	209
19	,	210
19	,	211
19	,	212
19	,	213
19	,	214
19	,	215
20	,	215
20	,	216
20	,	217
20	,	218
20	,	219
20	,	220
20	,	221
21	,	221
22	,	221
22	,	222
23	,	222
24	,	222
24	,	223
24	,	224
24	,	225
24	,	226
24	,	227
24	,	228
24	,	229
24	,	230
24	,	231
24	,	232
24	,	233
24	,	234
24	,	235
24	,	236
24	,	237
24	,	238
24	,	239
24	,	240
24	,	241
24	,	242
24	,	243
24	,	244
24	,	245
24	,	246
24	,	247
24	,	248
24	,	249
24	,	250
24	,	251
24	,	252
24	,	253
24	,	254
24	,	255
24	,	256
24	,	257
24	,	258
24	,	259
24	,	260
24	,	261
24	,	262
24	,	263
24	,	264
24	,	265
24	,	266
24	,	267
24	,	268
24	,	269
24	,	270
24	,	271
24	,	272
24	,	273
24	,	274
24	,	275
25	,	275
25	,	276
25	,	277
25	,	278
26	,	278
26	,	279
27	,	279
27	,	280
27	,	281
27	,	282
27	,	283
27	,	284
27	,	285
27	,	286
27	,	287
27	,	288
28	,	288
28	,	289
28	,	290
28	,	291
28	,	292
28	,	293
28	,	294
28	,	295
28	,	296
28	,	297
29	,	297
29	,	298
29	,	299
29	,	300
29	,	301
29	,	302
29	,	303
29	,	304
29	,	305
29	,	306
29	,	307
29	,	308
29	,	309
29	,	310
29	,	311
29	,	312
29	,	313
29	,	314
29	,	315
29	,	316
30	,	316
31	,	316
31	,	317
31	,	318
31	,	319
31	,	320
31	,	321
31	,	322
31	,	323
31	,	324
31	,	325
31	,	326
31	,	327
31	,	328
32	,	328
32	,	329
32	,	330
32	,	331
32	,	332
32	,	333
32	,	334
32	,	335
32	,	336
32	,	337
32	,	338
33	,	338
33	,	339
33	,	340
33	,	341
33	,	342
33	,	343
33	,	344
33	,	345
33	,	346
33	,	347
33	,	348
33	,	349
34	,	349
34	,	350
34	,	351
34	,	352
34	,	353
34	,	354
34	,	355
34	,	356
34	,	357
34	,	358
34	,	359
34	,	360
34	,	361
34	,	362
34	,	363
34	,	364
34	,	365
34	,	366
34	,	367
34	,	368
34	,	369
34	,	370
34	,	371
34	,	372
34	,	373
34	,	374
34	,	375
34	,	376
34	,	377
34	,	378
34	,	379
34	,	380
34	,	381
34	,	382
34	,	383
34	,	384
34	,	385
34	,	386
34	,	387
34	,	388
34	,	389
34	,	390
34	,	391
34	,	392
34	,	393
35	,	393
35	,	394
35	,	395
35	,	396
35	,	397
35	,	398
35	,	399
35	,	400
35	,	401
35	,	402
35	,	403
35	,	404
35	,	405
35	,	406
36	,	406
36	,	407
36	,	408
36	,	409
36	,	410
36	,	411
36	,	412
36	,	413
36	,	414
36	,	415
36	,	416
36	,	417
36	,	418
36	,	419
36	,	420
36	,	421
36	,	422
36	,	423
36	,	424
36	,	425
37	,	425
37	,	426
37	,	427
37	,	428
38	,	428
38	,	429
38	,	430
38	,	431
38	,	432
38	,	433
38	,	434
38	,	435
38	,	436
38	,	437
39	,	437
39	,	438
39	,	439
39	,	440
39	,	441
39	,	442
39	,	443
39	,	444
39	,	445
39	,	446
39	,	447
39	,	448
39	,	449
39	,	450
39	,	451
39	,	452
39	,	453
39	,	454
39	,	455
39	,	456
39	,	457
39	,	458
39	,	459
39	,	460
39	,	461
39	,	462
39	,	463
39	,	464
39	,	465
39	,	466
40	,	466
40	,	467
40	,	468
40	,	469
40	,	470
40	,	471
40	,	472
41	,	472
41	,	473
41	,	474
41	,	475
42	,	475
42	,	476
42	,	477
42	,	478
42	,	479
42	,	480
42	,	481
42	,	482
42	,	483
43	,	483
43	,	484
43	,	485
44	,	485
44	,	486
44	,	487
44	,	488
44	,	489
44	,	490
44	,	491
44	,	492
44	,	493
44	,	494
44	,	495
44	,	496
44	,	497
44	,	498
44	,	499
44	,	500
44	,	501
44	,	502
45	,	502
45	,	503
45	,	504
45	,	505
45	,	506
45	,	507
45	,	508
45	,	509
45	,	510
45	,	511
45	,	512
45	,	513
45	,	514
45	,	515
45	,	516
45	,	517
45	,	518
45	,	519
45	,	520
45	,	521
45	,	522
45	,	523
46	,	523
46	,	524
46	,	525
46	,	526
46	,	527
46	,	528
46	,	529
46	,	530
46	,	531
47	,	531
47	,	532
47	,	533
47	,	534
47	,	535
47	,	536
47	,	537
47	,	538
47	,	539
47	,	540
47	,	541
47	,	542
47	,	543
47	,	544
47	,	545
47	,	546
47	,	547
47	,	548
47	,	549
47	,	550
48	,	550
48	,	551
48	,	552
48	,	553
48	,	554
48	,	555
48	,	556
48	,	557
48	,	558
48	,	559
48	,	560
48	,	561
48	,	562
48	,	563
48	,	564
48	,	565
48	,	566
48	,	567
48	,	568
48	,	569
48	,	570
48	,	571
48	,	572
48	,	573
48	,	574
48	,	575
48	,	576
48	,	577
48	,	578
48	,	579
48	,	580
48	,	581
48	,	582
48	,	583
49	,	583
49	,	584
49	,	585
50	,	585
50	,	586
51	,	586
51	,	587
51	,	588
51	,	589
51	,	590
51	,	591
51	,	592
51	,	593
51	,	594
51	,	595
51	,	596
52	,	596
52	,	597
52	,	598
52	,	599
52	,	600
52	,	601
52	,	602
52	,	603
52	,	604
52	,	605
52	,	606
52	,	607
52	,	608
52	,	609
52	,	610
52	,	611
52	,	612
52	,	613
52	,	614
52	,	615
52	,	616
53	,	616
53	,	617
54	,	617
54	,	618
54	,	619
54	,	620
54	,	621
54	,	622
54	,	623
54	,	624
55	,	624
55	,	625
55	,	626
55	,	627
55	,	628
55	,	629
55	,	630
55	,	631
55	,	632
55	,	633
55	,	634
55	,	635
55	,	636
55	,	637
55	,	638
55	,	639
55	,	640
55	,	641
55	,	642
55	,	643
55	,	644
55	,	645
55	,	646
55	,	647
55	,	648
55	,	649
55	,	650
55	,	651
55	,	652
55	,	653
55	,	654
55	,	655
55	,	656
55	,	657
55	,	658
55	,	659
55	,	660
55	,	661
56	,	661
56	,	662
56	,	663
56	,	664
56	,	665
56	,	666
57	,	666
57	,	667
57	,	668
57	,	669
57	,	670
57	,	671
58	,	671
58	,	672
58	,	673
58	,	674
58	,	675
58	,	676
59	,	676
60	,	676
60	,	677
60	,	678
60	,	679
61	,	679
61	,	680
61	,	681
61	,	682
62	,	682
62	,	683
62	,	684
62	,	685
62	,	686
62	,	687
62	,	688
62	,	689
62	,	690
62	,	691
62	,	692
62	,	693
62	,	694
62	,	695
62	,	696
62	,	697
62	,	698
62	,	699
62	,	700
62	,	701
62	,	702
62	,	703
62	,	704
62	,	705
62	,	706
62	,	707
62	,	708
62	,	709
62	,	710
62	,	711
62	,	712
62	,	713
62	,	714
62	,	715
62	,	716
63	,	716
63	,	717
63	,	718
63	,	719
63	,	720
63	,	721
63	,	722
63	,	723
63	,	724
63	,	725
63	,	726
63	,	727
63	,	728
63	,	729
63	,	730
63	,	731
63	,	732
63	,	733
63	,	734
64	,	734
64	,	735
65	,	735
65	,	736
65	,	737
65	,	738
65	,	739
65	,	740
65	,	741
65	,	742
65	,	743
65	,	744
65	,	745
65	,	746
65	,	747
65	,	748
65	,	749
65	,	750
65	,	751
65	,	752
65	,	753
65	,	754
65	,	755
65	,	756
66	,	756
66	,	757
66	,	758
66	,	759
66	,	760
67	,	760
67	,	761
67	,	762
68	,	762
68	,	763
69	,	763
69	,	764
69	,	765
69	,	766
69	,	767
69	,	768
69	,	769
69	,	770
69	,	771
69	,	772
69	,	773
69	,	774
69	,	775
69	,	776
69	,	777
69	,	778
69	,	779
69	,	780
69	,	781
69	,	782
69	,	783
69	,	784
69	,	785
69	,	786
69	,	787
69	,	788
69	,	789
69	,	790
69	,	791
69	,	792
70	,	792
70	,	793
70	,	794
70	,	795
70	,	796
70	,	797
70	,	798
70	,	799
70	,	800
70	,	801
71	,	801
71	,	802
71	,	803
71	,	804
71	,	805
71	,	806
71	,	807
72	,	807
72	,	808
72	,	809
72	,	810
73	,	810
73	,	811
73	,	812
74	,	812
74	,	813
74	,	814
74	,	815
74	,	816
74	,	817
74	,	818
75	,	818
75	,	819
76	,	819
76	,	820
76	,	821
76	,	822
76	,	823
76	,	824
76	,	825
76	,	826
76	,	827
76	,	828
76	,	829
76	,	830
76	,	831
76	,	832
76	,	833
76	,	834
76	,	835
76	,	836
76	,	837
76	,	838
76	,	839
76	,	840
76	,	841
76	,	842
76	,	843
76	,	844
76	,	845
76	,	846
77	,	846
77	,	847
77	,	848
77	,	849
78	,	849
78	,	850
79	,	850
79	,	851
79	,	852
79	,	853
79	,	854
79	,	855
80	,	855
80	,	856
80	,	857
80	,	858
80	,	859
80	,	860
80	,	861
80	,	862
80	,	863
80	,	864
80	,	865
80	,	866
80	,	867
80	,	868
80	,	869
80	,	870
80	,	871
80	,	872
80	,	873
80	,	874
81	,	874
81	,	875
81	,	876
81	,	877
82	,	877
82	,	878
82	,	879
82	,	880
82	,	881
82	,	882
83	,	882
83	,	883
83	,	884
83	,	885
83	,	886
83	,	887
83	,	888
84	,	888
85	,	888
85	,	889
85	,	890
85	,	891
85	,	892
86	,	892
86	,	893
86	,	894
86	,	895
86	,	896
86	,	897
86	,	898
86	,	899
86	,	900
86	,	901
86	,	902
86	,	903
86	,	904
86	,	905
86	,	906
86	,	907
86	,	908
86	,	909
86	,	910
86	,	911
87	,	911
87	,	912
87	,	913
87	,	914
87	,	915
87	,	916
87	,	917
87	,	918
87	,	919
87	,	920
87	,	921
88	,	921
88	,	922
88	,	923
88	,	924
88	,	925
88	,	926
88	,	927
88	,	928
88	,	929
88	,	930
88	,	931
88	,	932
88	,	933
88	,	934
88	,	935
88	,	936
88	,	937
88	,	938
88	,	939
88	,	940
88	,	941
88	,	942
88	,	943
88	,	944
88	,	945
88	,	946
88	,	947
88	,	948
88	,	949
88	,	950
88	,	951
88	,	952
88	,	953
88	,	954
88	,	955
88	,	956
88	,	957
88	,	958
88	,	959
88	,	960
88	,	961
88	,	962
88	,	963
88	,	964
88	,	965
88	,	966
89	,	966
89	,	967
89	,	968
89	,	969
89	,	970
89	,	971
89	,	972
90	,	972
90	,	973
90	,	974
90	,	975
90	,	976
90	,	977
90	,	978
90	,	979
90	,	980
90	,	981
90	,	982
90	,	983
90	,	984
90	,	985
91	,	985
92	,	985
92	,	986
92	,	987
92	,	988
92	,	989
92	,	990
92	,	991
92	,	992
92	,	993
92	,	994
92	,	995
93	,	995
93	,	996
93	,	997
93	,	998
93	,	999
93	,	1000
93	,	1001
93	,	1002
93	,	1003
93	,	1004
93	,	1005
93	,	1006
93	,	1007
93	,	1008
94	,	1008
94	,	1009
94	,	1010
94	,	1011
94	,	1012
94	,	1013
94	,	1014
94	,	1015
94	,	1016
95	,	1016
95	,	1017
95	,	1018
95	,	1019
95	,	1020
95	,	1021
95	,	1022
95	,	1023
95	,	1024
95	,	1025
95	,	1026
95	,	1027
95	,	1028
95	,	1029
95	,	1030
95	,	1031
95	,	1032
95	,	1033
95	,	1034
95	,	1035
95	,	1036
95	,	1037
95	,	1038
95	,	1039
95	,	1040
95	,	1041
96	,	1041
96	,	1042
96	,	1043
96	,	1044
96	,	1045
96	,	1046
96	,	1047
96	,	1048
96	,	1049
96	,	1050
96	,	1051
96	,	1052
96	,	1053
96	,	1054
96	,	1055
96	,	1056
96	,	1057
96	,	1058
96	,	1059
97	,	1059
98	,	1059
98	,	1060
98	,	1061
98	,	1062
98	,	1063
98	,	1064
98	,	1065
98	,	1066
98	,	1067
98	,	1068
98	,	1069
98	,	1070
98	,	1071
98	,	1072
98	,	1073
98	,	1074
98	,	1075
98	,	1076
98	,	1077
98	,	1078
98	,	1079
98	,	1080
98	,	1081
98	,	1082
98	,	1083
98	,	1084
98	,	1085
98	,	1086
98	,	1087
98	,	1088
98	,	1089
98	,	1090
98	,	1091
98	,	1092
98	,	1093
98	,	1094
98	,	1095
98	,	1096
98	,	1097
98	,	1098
98	,	1099
98	,	1100
98	,	1101
98	,	1102
98	,	1103
98	,	1104
98	,	1105
98	,	1106
98	,	1107
98	,	1108
98	,	1109
98	,	1110
98	,	1111
98	,	1112
98	,	1113
98	,	1114
99	,	1114
99	,	1115
99	,	1116
100	,	1116
100	,	1117
100	,	1118
100	,	1119
100	,	1120
100	,	1121
100	,	1122
100	,	1123
100	,	1124
100	,	1125
100	,	1126
100	,	1127
100	,	1128
100	,	1129
100	,	1130
100	,	1131
100	,	1132
100	,	1133
100	,	1134
100	,	1135
100	,	1136
100	,	1137
100	,	1138
100	,	1139
100	,	1140
100	,	1141
100	,	1142
101	,	1142
101	,	1143
101	,	1144
101	,	1145
101	,	1146
101	,	1147
101	,	1148
101	,	1149
101	,	1150
101	,	1151
101	,	1152
101	,	1153
101	,	1154
101	,	1155
101	,	1156
101	,	1157
101	,	1158
101	,	1159
101	,	1160
101	,	1161
101	,	1162
102	,	1162
102	,	1163
102	,	1164
102	,	1165
102	,	1166
102	,	1167
102	,	1168
102	,	1169
103	,	1169
103	,	1170
103	,	1171
103	,	1172
103	,	1173
103	,	1174
103	,	1175
103	,	1176
103	,	1177
103	,	1178
103	,	1179
104	,	1179
104	,	1180
104	,	1181
104	,	1182
104	,	1183
104	,	1184
104	,	1185
105	,	1185
105	,	1186
105	,	1187
105	,	1188
105	,	1189
105	,	1190
105	,	1191
105	,	1192
105	,	1193
105	,	1194
105	,	1195
105	,	1196
105	,	1197
105	,	1198
105	,	1199
105	,	1200
105	,	1201
105	,	1202
105	,	1203
105	,	1204
105	,	1205
105	,	1206
106	,	1206
107	,	1206
107	,	1207
107	,	1208
107	,	1209
107	,	1210
107	,	1211
107	,	1212
107	,	1213
107	,	1214
107	,	1215
107	,	1216
107	,	1217
108	,	1217
108	,	1218
108	,	1219
108	,	1220
109	,	1220
109	,	1221
109	,	1222
109	,	1223
109	,	1224
109	,	1225
109	,	1226
109	,	1227
110	,	1227
110	,	1228
110	,	1229
110	,	1230
110	,	1231
110	,	1232
111	,	1232
111	,	1233
111	,	1234
111	,	1235
111	,	1236
111	,	1237
111	,	1238
111	,	1239
111	,	1240
111	,	1241
111	,	1242
111	,	1243
111	,	1244
111	,	1245
111	,	1246
111	,	1247
111	,	1248
111	,	1249
111	,	1250
111	,	1251
111	,	1252
111	,	1253
111	,	1254
111	,	1255
111	,	1256
111	,	1257
111	,	1258
111	,	1259
112	,	1259
112	,	1260
112	,	1261
112	,	1262
112	,	1263
112	,	1264
112	,	1265
112	,	1266
112	,	1267
112	,	1268
112	,	1269
112	,	1270
112	,	1271
112	,	1272
112	,	1273
112	,	1274
112	,	1275
112	,	1276
112	,	1277
112	,	1278
112	,	1279
112	,	1280
112	,	1281
112	,	1282
112	,	1283
112	,	1284
112	,	1285
112	,	1286
112	,	1287
113	,	1287
113	,	1288
113	,	1289
114	,	1289
114	,	1290
114	,	1291
114	,	1292
114	,	1293
114	,	1294
114	,	1295
114	,	1296
115	,	1296
115	,	1297
115	,	1298
115	,	1299
115	,	1300
115	,	1301
115	,	1302
116	,	1302
116	,	1303
116	,	1304
116	,	1305
116	,	1306
116	,	1307
116	,	1308
116	,	1309
116	,	1310
117	,	1310
117	,	1311
118	,	1311
118	,	1312
118	,	1313
118	,	1314
118	,	1315
118	,	1316
118	,	1317
118	,	1318
118	,	1319
118	,	1320
118	,	1321
118	,	1322
118	,	1323
118	,	1324
119	,	1324
119	,	1325
119	,	1326
119	,	1327
119	,	1328
119	,	1329
119	,	1330
119	,	1331
119	,	1332
119	,	1333
119	,	1334
119	,	1335
119	,	1336
119	,	1337
119	,	1338
119	,	1339
119	,	1340
119	,	1341
119	,	1342
119	,	1343
119	,	1344
119	,	1345
119	,	1346
119	,	1347
119	,	1348
119	,	1349
119	,	1350
119	,	1351
119	,	1352
119	,	1353
119	,	1354
119	,	1355
119	,	1356
119	,	1357
119	,	1358
119	,	1359
119	,	1360
119	,	1361
119	,	1362
119	,	1363
119	,	1364
119	,	1365
119	,	1366
119	,	1367
119	,	1368
119	,	1369
119	,	1370
119	,	1371
119	,	1372
119	,	1373
119	,	1374
119	,	1375
119	,	1376
119	,	1377
119	,	1378
119	,	1379
119	,	1380
119	,	1381
119	,	1382
119	,	1383
119	,	1384
119	,	1385
119	,	1386
119	,	1387
120	,	1387
120	,	1388
120	,	1389
120	,	1390
120	,	1391
120	,	1392
120	,	1393
120	,	1394
120	,	1395
120	,	1396
120	,	1397
121	,	1397
121	,	1398
121	,	1399
121	,	1400
121	,	1401
121	,	1402
121	,	1403
121	,	1404
121	,	1405
121	,	1406
121	,	1407
121	,	1408
121	,	1409
122	,	1409
123	,	1409
123	,	1410
123	,	1411
123	,	1412
123	,	1413
123	,	1414
123	,	1415
123	,	1416
123	,	1417
123	,	1418
123	,	1419
123	,	1420
123	,	1421
123	,	1422
123	,	1423
123	,	1424
124	,	1424
124	,	1425
125	,	1425
125	,	1426
125	,	1427
125	,	1428
125	,	1429
125	,	1430
125	,	1431
125	,	1432
125	,	1433
125	,	1434
126	,	1434
126	,	1435
126	,	1436
127	,	1436
127	,	1437
127	,	1438
127	,	1439
127	,	1440
127	,	1441
127	,	1442
127	,	1443
127	,	1444
127	,	1445
127	,	1446
127	,	1447
127	,	1448
127	,	1449
127	,	1450
127	,	1451
127	,	1452
127	,	1453
127	,	1454
127	,	1455
127	,	1456
127	,	1457
127	,	1458
127	,	1459
127	,	1460
127	,	1461
127	,	1462
127	,	1463
127	,	1464
127	,	1465
127	,	1466
127	,	1467
127	,	1468
127	,	1469
127	,	1470
127	,	1471
127	,	1472
127	,	1473
127	,	1474
127	,	1475
127	,	1476
127	,	1477
127	,	1478
127	,	1479
127	,	1480
127	,	1481
127	,	1482
127	,	1483
127	,	1484
127	,	1485
128	,	1485
128	,	1486
128	,	1487
128	,	1488
128	,	1489
128	,	1490
128	,	1491
128	,	1492
128	,	1493
128	,	1494
128	,	1495
128	,	1496
128	,	1497
128	,	1498
128	,	1499
128	,	1500
128	,	1501
128	,	1502
128	,	1503
128	,	1504
128	,	1505
128	,	1506
128	,	1507
128	,	1508
128	,	1509
128	,	1510
128	,	1511
128	,	1512
129	,	1512
129	,	1513
129	,	1514
129	,	1515
129	,	1516
130	,	1516
130	,	1517
130	,	1518
130	,	1519
130	,	1520
130	,	1521
130	,	1522
130	,	1523
130	,	1524
130	,	1525
130	,	1526
130	,	1527
130	,	1528
130	,	1529
130	,	1530
130	,	1531
130	,	1532
130	,	1533
130	,	1534
130	,	1535
130	,	1536
130	,	1537
130	,	1538
130	,	1539
130	,	1540
130	,	1541
131	,	1541
131	,	1542
131	,	1543
131	,	1544
131	,	1545
131	,	1546
131	,	1547
131	,	1548
131	,	1549
131	,	1550
131	,	1551
131	,	1552
131	,	1553
131	,	1554
131	,	1555
131	,	1556
131	,	1557
131	,	1558
131	,	1559
131	,	1560
131	,	1561
131	,	1562
131	,	1563
131	,	1564
131	,	1565
131	,	1566
131	,	1567
131	,	1568
131	,	1569
131	,	1570
131	,	1571
131	,	1572
131	,	1573
132	,	1573
132	,	1574
132	,	1575
132	,	1576
132	,	1577
132	,	1578
132	,	1579
132	,	1580
132	,	1581
132	,	1582
132	,	1583
132	,	1584
132	,	1585
132	,	1586
132	,	1587
132	,	1588
132	,	1589
132	,	1590
132	,	1591
132	,	1592
132	,	1593
132	,	1594
132	,	1595
132	,	1596
132	,	1597
132	,	1598
132	,	1599
132	,	1600
132	,	1601
132	,	1602
132	,	1603
132	,	1604
132	,	1605
132	,	1606
132	,	1607
132	,	1608
132	,	1609
133	,	1609
134	,	1609
134	,	1610
134	,	1611
134	,	1612
134	,	1613
134	,	1614
134	,	1615
134	,	1616
134	,	1617
134	,	1618
134	,	1619
134	,	1620
134	,	1621
134	,	1622
134	,	1623
134	,	1624
134	,	1625
134	,	1626
134	,	1627
134	,	1628
134	,	1629
134	,	1630
134	,	1631
134	,	1632
134	,	1633
134	,	1634
134	,	1635
134	,	1636
134	,	1637
134	,	1638
134	,	1639
134	,	1640
134	,	1641
134	,	1642
134	,	1643
134	,	1644
134	,	1645
134	,	1646
134	,	1647
134	,	1648
134	,	1649
134	,	1650
134	,	1651
134	,	1652
134	,	1653
134	,	1654
134	,	1655
134	,	1656
134	,	1657
134	,	1658
134	,	1659
134	,	1660
134	,	1661
134	,	1662
134	,	1663
135	,	1663
135	,	1664
135	,	1665
135	,	1666
135	,	1667
135	,	1668
135	,	1669
135	,	1670
135	,	1671
135	,	1672
135	,	1673
135	,	1674
135	,	1675
135	,	1676
135	,	1677
135	,	1678
135	,	1679
135	,	1680
135	,	1681
135	,	1682
135	,	1683
135	,	1684
135	,	1685
135	,	1686
136	,	1686
136	,	1687
136	,	1688
136	,	1689
136	,	1690
136	,	1691
137	,	1691
137	,	1692
137	,	1693
138	,	1693
138	,	1694
138	,	1695
138	,	1696
138	,	1697
138	,	1698
138	,	1699
138	,	1700
139	,	1700
139	,	1701
139	,	1702
139	,	1703
139	,	1704
139	,	1705
139	,	1706
139	,	1707
139	,	1708
139	,	1709
139	,	1710
139	,	1711
139	,	1712
139	,	1713
139	,	1714
139	,	1715
139	,	1716
139	,	1717
139	,	1718
140	,	1718
140	,	1719
140	,	1720
140	,	1721
140	,	1722
141	,	1722
141	,	1723
141	,	1724
141	,	1725
141	,	1726
141	,	1727
141	,	1728
141	,	1729
141	,	1730
141	,	1731
141	,	1732
141	,	1733
141	,	1734
142	,	1734
142	,	1735
142	,	1736
142	,	1737
142	,	1738
142	,	1739
142	,	1740
142	,	1741
143	,	1741
143	,	1742
143	,	1743
143	,	1744
143	,	1745
143	,	1746
144	,	1746
144	,	1747
145	,	1747
145	,	1748
146	,	1748
146	,	1749
146	,	1750
146	,	1751
146	,	1752
146	,	1753
146	,	1754
146	,	1755
146	,	1756
146	,	1757
146	,	1758
146	,	1759
146	,	1760
146	,	1761
146	,	1762
146	,	1763
147	,	1763
147	,	1764
148	,	1764
148	,	1765
148	,	1766
148	,	1767
148	,	1768
148	,	1769
148	,	1770
148	,	1771
148	,	1772
148	,	1773
148	,	1774
148	,	1775
148	,	1776
148	,	1777
148	,	1778
148	,	1779
148	,	1780
148	,	1781
148	,	1782
148	,	1783
148	,	1784
148	,	1785
148	,	1786
148	,	1787
149	,	1787
149	,	1788
149	,	1789
149	,	1790
149	,	1791
149	,	1792
149	,	1793
149	,	1794
149	,	1795
149	,	1796
149	,	1797
149	,	1798
149	,	1799
149	,	1800
149	,	1801
150	,	1801
151	,	1801
151	,	1802
151	,	1803
152	,	1803
152	,	1804
152	,	1805
152	,	1806
152	,	1807
152	,	1808
152	,	1809
152	,	1810
152	,	1811
152	,	1812
152	,	1813
152	,	1814
153	,	1814
153	,	1815
153	,	1816
153	,	1817
153	,	1818
153	,	1819
153	,	1820
154	,	1820
154	,	1821
155	,	1821
155	,	1822
155	,	1823
155	,	1824
156	,	1824
156	,	1825
156	,	1826
156	,	1827
157	,	1827
157	,	1828
157	,	1829
157	,	1830
157	,	1831
158	,	1831
158	,	1832
158	,	1833
158	,	1834
158	,	1835
158	,	1836
158	,	1837
158	,	1838
158	,	1839
158	,	1840
158	,	1841
158	,	1842
